Order-Id,Item-id,Product-Id,Quantity,Sales-Id,Customer-Id,Sales-Price-Per-Prod,Market-Segment
0,0,14,15,0,24,183,realestate
1,1,11,9,4,14,122,financial
2,2,5,3,0,11,104,software
3,3,19,6,4,22,86,retail
4,4,19,28,5,18,97,realestate
5,5,7,5,7,19,167,software
6,6,13,25,9,1,86,pharmaceutical
7,7,16,20,5,23,158,education
8,8,9,16,3,26,77,education
9,9,10,14,7,14,109,retail
10,10,0,29,2,15,123,software
11,11,13,11,1,28,112,software
12,12,13,8,0,6,134,financial
13,13,18,2,1,6,83,financial
14,14,2,25,3,20,200,realestate
15,15,9,23,2,14,51,financial
16,16,8,24,6,22,171,financial
17,17,7,13,7,11,140,pharmaceutical
18,18,9,11,2,12,91,realestate
19,19,13,21,6,29,106,education
20,20,11,15,0,24,125,education
21,21,4,6,1,6,190,realestate
22,22,10,4,0,0,97,software
23,23,16,22,6,29,161,software
24,24,1,16,6,17,217,pharmaceutical
25,25,7,24,6,25,123,software
26,26,10,28,2,21,92,retail
27,27,0,10,8,29,119,education
28,28,6,6,3,14,66,realestate
29,29,8,1,4,20,133,retail
30,30,4,20,4,11,134,retail
31,31,7,8,3,23,128,realestate
32,32,7,17,3,1,131,education
33,33,19,13,3,7,119,financial
34,34,16,19,1,3,148,retail
35,35,3,9,6,1,188,financial
36,36,4,9,2,20,165,retail
37,37,12,7,0,2,97,software
38,38,12,2,0,8,83,retail
39,39,9,10,7,25,84,software
40,40,19,28,5,29,103,pharmaceutical
41,41,16,27,5,25,148,pharmaceutical
42,42,19,11,5,0,95,pharmaceutical
43,43,12,5,8,28,105,software
44,44,2,22,5,5,203,education
45,45,14,3,4,4,180,software
46,46,14,0,6,2,180,realestate
47,47,12,23,1,14,78,software
48,48,0,13,6,13,122,software
49,49,0,3,7,7,121,retail
50,50,0,16,9,27,119,software
51,51,1,10,2,21,183,realestate
52,52,2,0,7,12,205,education
53,53,12,21,1,1,97,financial
54,54,18,17,0,11,58,retail
55,55,6,12,3,0,48,financial
56,56,4,21,3,10,176,education
57,57,10,11,1,6,152,financial
58,58,0,6,3,20,121,retail
59,59,12,21,8,11,100,realestate
60,60,12,14,3,6,95,realestate
61,61,16,12,8,1,162,software
62,62,16,13,7,28,161,financial
63,63,19,24,5,8,82,financial
64,64,10,7,9,3,111,retail
65,65,5,14,8,11,108,pharmaceutical
66,66,0,25,8,7,123,realestate
67,67,9,1,3,6,57,software
68,68,2,10,3,18,210,retail
69,69,4,17,8,0,177,retail
70,70,3,21,2,13,194,pharmaceutical
71,71,17,2,0,17,205,software
72,72,16,18,9,25,147,software
73,73,6,25,5,20,51,retail
74,74,16,6,0,25,150,financial
75,75,11,22,6,6,141,financial
76,76,9,29,8,16,54,software
77,77,14,2,1,24,178,retail
78,78,7,23,3,28,140,software
79,79,14,12,5,2,178,retail
80,80,8,8,8,11,181,retail
81,81,16,22,0,21,146,software
82,82,2,10,8,6,202,education
83,83,19,0,1,20,73,software
84,84,0,7,1,21,119,software
85,85,12,9,5,13,85,pharmaceutical
86,86,16,8,9,19,160,education
87,87,2,22,5,10,217,realestate
88,88,1,15,2,25,221,financial
89,89,2,27,8,0,217,software
90,90,6,5,6,22,38,retail
91,91,2,6,2,7,205,education
92,92,14,8,3,8,198,software
93,93,1,26,2,17,169,pharmaceutical
94,94,10,25,7,16,88,software
95,95,2,10,7,11,208,retail
96,96,5,18,3,6,134,pharmaceutical
97,97,5,26,3,17,127,realestate
98,98,17,26,8,10,195,pharmaceutical
99,99,18,2,8,23,75,software
100,100,1,19,4,28,181,realestate
101,101,5,5,1,2,93,realestate
102,102,17,2,5,29,197,realestate
103,103,5,18,4,15,103,software
104,104,10,17,9,9,148,pharmaceutical
105,105,9,9,0,27,55,financial
106,106,4,24,7,6,131,education
107,107,2,6,5,12,207,education
108,108,15,22,4,11,206,financial
109,109,5,27,3,8,104,education
110,110,16,7,3,0,153,retail
111,111,14,3,9,4,185,pharmaceutical
112,112,6,8,8,9,38,software
113,113,8,29,6,21,175,retail
114,114,7,27,9,28,164,software
115,115,17,9,8,26,188,realestate
116,116,5,1,9,3,126,financial
117,117,12,8,4,3,79,education
118,118,12,29,8,3,80,realestate
119,119,19,15,6,24,119,retail
120,120,16,0,0,28,151,financial
121,121,3,5,0,12,196,pharmaceutical
122,122,12,0,6,14,109,software
123,123,14,27,5,2,186,education
124,124,8,24,3,16,127,financial
125,125,7,21,3,15,166,software
126,126,19,20,2,8,77,education
127,127,19,9,8,25,118,retail
128,128,6,12,8,15,69,software
129,129,10,2,4,27,115,education
130,130,19,5,4,22,107,retail
131,131,15,6,1,16,207,education
132,132,6,2,4,24,42,software
133,133,17,28,8,28,204,pharmaceutical
134,134,19,12,4,16,110,retail
135,135,16,26,4,4,155,education
136,136,19,9,3,13,113,realestate
137,137,0,8,0,25,121,financial
138,138,13,22,0,4,124,financial
139,139,4,8,1,1,165,financial
140,140,15,6,2,8,197,financial
141,141,11,20,6,18,105,financial
142,142,6,14,5,5,83,pharmaceutical
143,143,5,2,8,11,95,pharmaceutical
144,144,8,19,7,24,186,retail
145,145,16,17,5,8,146,retail
146,146,3,24,9,11,188,software
147,147,16,11,3,20,150,retail
148,148,6,5,2,14,54,realestate
149,149,5,1,2,28,99,financial
150,150,5,27,3,10,98,financial
151,151,17,6,3,17,201,retail
152,152,8,4,2,0,180,pharmaceutical
153,153,0,23,5,27,122,realestate
154,154,10,12,9,9,95,pharmaceutical
155,155,16,7,5,29,148,retail
156,156,10,22,0,28,123,software
157,157,2,26,6,22,215,realestate
158,158,3,15,6,6,217,realestate
159,159,2,14,4,4,208,pharmaceutical
160,160,14,1,6,17,194,software
161,161,17,5,5,29,193,education
162,162,10,5,0,15,107,pharmaceutical
163,163,14,9,7,28,195,financial
164,164,15,28,5,8,216,financial
165,165,19,9,4,3,114,realestate
166,166,17,18,0,22,202,realestate
167,167,10,22,7,18,155,education
168,168,7,21,9,10,155,realestate
169,169,17,9,9,24,186,education
170,170,5,23,7,2,100,retail
171,171,11,0,1,6,121,financial
172,172,5,3,2,17,134,financial
173,173,8,1,9,26,113,realestate
174,174,13,22,9,9,117,retail
175,175,5,5,4,2,107,software
176,176,7,15,3,5,119,pharmaceutical
177,177,3,25,4,29,199,retail
178,178,18,15,9,28,78,financial
179,179,8,7,2,25,152,pharmaceutical
180,180,5,1,9,27,107,software
181,181,13,4,2,0,112,financial
182,182,8,7,8,23,175,pharmaceutical
183,183,9,22,4,14,48,software
184,184,3,28,1,7,208,retail
185,185,14,8,9,8,185,financial
186,186,8,19,6,24,122,software
187,187,4,16,2,12,147,pharmaceutical
188,188,13,4,2,22,125,realestate
189,189,14,6,0,23,186,financial
190,190,9,10,7,16,46,financial
191,191,12,25,7,3,86,realestate
192,192,13,17,0,7,119,pharmaceutical
193,193,14,22,6,0,178,pharmaceutical
194,194,10,14,2,22,127,education
195,195,16,24,7,29,161,pharmaceutical
196,196,18,24,6,9,59,financial
197,197,3,10,7,19,212,software
198,198,14,12,1,9,193,retail
199,199,12,12,1,28,78,realestate
200,200,16,16,9,3,147,pharmaceutical
201,201,8,20,5,13,184,pharmaceutical
202,202,6,6,9,13,43,software
203,203,9,2,5,15,62,retail
204,204,13,11,4,0,144,education
205,205,4,9,1,28,135,financial
206,206,4,21,3,24,158,financial
207,207,18,9,4,24,90,pharmaceutical
208,208,14,18,1,0,195,realestate
209,209,2,14,0,20,217,software
210,210,12,24,1,2,97,education
211,211,17,23,7,3,186,software
212,212,9,8,7,14,63,pharmaceutical
213,213,18,5,4,21,62,retail
214,214,8,3,1,7,197,education
215,215,2,5,9,24,213,retail
216,216,15,17,6,12,213,education
217,217,12,21,0,15,92,pharmaceutical
218,218,6,26,2,19,38,retail
219,219,6,6,6,8,52,education
220,220,0,25,6,7,121,financial
221,221,3,11,7,10,213,pharmaceutical
222,222,14,6,4,18,183,education
223,223,0,4,0,6,119,financial
224,224,6,15,9,2,63,financial
225,225,16,1,0,15,147,financial
226,226,7,19,3,4,142,software
227,227,9,0,1,20,47,realestate
228,228,15,24,9,17,198,realestate
229,229,10,26,7,9,119,education
230,230,14,20,9,1,198,realestate
231,231,18,19,7,12,99,realestate
232,232,12,3,1,12,85,pharmaceutical
233,233,3,18,8,13,179,education
234,234,18,4,8,6,86,realestate
235,235,12,7,2,27,80,retail
236,236,0,3,9,18,122,software
237,237,4,8,9,18,153,software
238,238,15,15,2,17,188,realestate
239,239,15,11,7,8,214,education
240,240,19,17,7,14,108,realestate
241,241,17,10,3,28,203,software
242,242,2,16,7,23,199,retail
243,243,7,13,9,15,165,education
244,244,11,5,9,5,140,pharmaceutical
245,245,19,14,6,27,92,software
246,246,6,19,8,15,57,retail
247,247,12,17,9,29,108,software
248,248,12,25,1,25,98,education
249,249,0,29,7,28,123,pharmaceutical
250,250,4,20,9,27,159,software
251,251,10,19,5,19,158,financial
252,252,16,19,4,21,153,retail
253,253,2,10,0,21,213,financial
254,254,9,25,5,14,84,retail
255,255,11,22,5,4,102,pharmaceutical
256,256,18,23,9,13,80,realestate
257,257,4,4,7,14,192,retail
258,258,2,17,4,2,201,financial
259,259,17,5,1,5,197,software
260,260,0,23,4,12,119,pharmaceutical
261,261,14,20,3,4,191,software
262,262,18,3,9,11,62,software
263,263,3,10,9,7,209,education
264,264,9,12,5,12,66,education
265,265,0,1,7,22,121,realestate
266,266,16,9,4,21,148,education
267,267,18,7,0,16,91,financial
268,268,5,18,7,21,107,software
269,269,6,1,4,1,41,realestate
270,270,19,15,6,18,107,realestate
271,271,4,2,2,22,167,realestate
272,272,4,20,5,0,149,retail
273,273,15,16,4,21,187,financial
274,274,18,11,8,20,51,education
275,275,10,5,3,4,95,realestate
276,276,17,3,2,22,200,software
277,277,4,6,0,27,180,education
278,278,13,26,5,13,139,retail
279,279,8,4,9,17,132,education
280,280,0,18,0,17,120,retail
281,281,15,1,8,4,186,pharmaceutical
282,282,2,26,7,22,214,financial
283,283,4,13,6,15,188,financial
284,284,7,12,1,22,167,realestate
285,285,18,25,7,15,72,software
286,286,3,10,6,7,206,pharmaceutical
287,287,12,4,4,24,100,financial
288,288,10,9,8,25,102,retail
289,289,2,2,1,1,207,retail
290,290,13,23,9,1,142,software
291,291,0,17,5,26,120,retail
292,292,7,12,4,6,143,realestate
293,293,17,20,1,8,192,financial
294,294,18,14,3,4,83,financial
295,295,7,23,8,29,164,financial
296,296,1,7,6,13,160,realestate
297,297,15,0,4,2,201,realestate
298,298,19,12,7,19,92,pharmaceutical
299,299,4,16,9,12,177,pharmaceutical
300,300,8,17,2,5,158,software
301,301,12,19,3,13,89,software
302,302,4,9,3,11,160,pharmaceutical
303,303,6,12,4,25,75,software
304,304,14,1,5,23,189,retail
305,305,9,22,1,11,81,realestate
306,306,5,24,1,0,126,education
307,307,2,21,6,24,202,retail
308,308,10,13,8,9,104,retail
309,309,13,20,7,7,118,retail
310,310,18,24,6,25,60,pharmaceutical
311,311,6,13,0,21,50,financial
312,312,13,20,1,21,100,financial
313,313,8,16,2,12,182,realestate
314,314,9,5,9,7,70,retail
315,315,11,24,6,5,102,pharmaceutical
316,316,19,27,0,24,116,financial
317,317,2,14,8,9,215,financial
318,318,7,24,6,10,136,pharmaceutical
319,319,7,24,5,15,136,financial
320,320,11,28,8,10,92,software
321,321,9,24,2,2,101,financial
322,322,17,16,5,5,189,financial
323,323,5,3,1,4,118,software
324,324,3,18,0,15,216,realestate
325,325,5,18,0,14,132,pharmaceutical
326,326,13,29,1,10,117,software
327,327,10,8,1,17,127,education
328,328,8,6,1,22,153,retail
329,329,2,29,2,25,215,pharmaceutical
330,330,5,26,6,18,98,pharmaceutical
331,331,10,14,2,18,96,financial
332,332,14,29,7,18,190,education
333,333,9,14,0,13,87,software
334,334,13,7,4,16,114,retail
335,335,12,9,7,15,101,financial
336,336,9,19,5,0,88,pharmaceutical
337,337,14,15,1,1,198,education
338,338,19,29,8,9,100,financial
339,339,15,11,8,18,198,retail
340,340,2,19,2,16,216,retail
341,341,6,22,3,22,75,retail
342,342,16,17,9,18,146,pharmaceutical
343,343,5,13,7,7,108,realestate
344,344,12,11,1,17,82,software
345,345,13,1,4,7,97,retail
346,346,19,14,0,3,92,realestate
347,347,13,26,1,9,111,software
348,348,19,23,6,9,79,software
349,349,16,14,5,26,158,software
350,350,2,26,7,17,213,education
351,351,17,3,2,26,185,realestate
352,352,12,26,9,29,107,retail
353,353,14,17,0,14,190,education
354,354,3,6,5,17,188,realestate
355,355,10,4,8,5,91,education
356,356,1,1,1,16,203,retail
357,357,16,20,3,22,152,pharmaceutical
358,358,7,21,0,15,165,realestate
359,359,13,11,9,22,146,pharmaceutical
360,360,0,2,0,17,121,software
361,361,3,1,2,16,177,retail
362,362,5,16,8,23,124,retail
363,363,0,29,3,8,119,realestate
364,364,10,24,2,26,97,pharmaceutical
365,365,13,27,6,26,136,education
366,366,2,5,2,0,199,retail
367,367,14,8,3,13,178,realestate
368,368,8,12,6,24,117,education
369,369,12,5,2,8,92,realestate
370,370,13,26,2,22,118,financial
371,371,12,19,9,24,101,retail
372,372,14,19,4,13,184,retail
373,373,8,26,4,16,135,retail
374,374,0,17,0,10,121,education
375,375,5,9,0,25,130,retail
376,376,17,16,0,12,189,realestate
377,377,11,19,3,14,91,software
378,378,9,7,4,6,105,retail
379,379,4,17,9,8,134,realestate
380,380,0,6,2,9,120,retail
381,381,12,15,0,20,89,software
382,382,8,9,1,28,141,financial
383,383,13,28,9,28,86,software
384,384,8,5,0,3,155,financial
385,385,4,20,2,26,155,software
386,386,17,28,9,21,201,pharmaceutical
387,387,9,0,2,0,57,financial
388,388,7,19,0,5,131,pharmaceutical
389,389,17,10,2,6,193,education
390,390,13,24,5,19,95,education
391,391,4,20,7,13,190,software
392,392,7,17,2,28,166,retail
393,393,14,28,5,0,191,realestate
394,394,2,13,8,15,217,financial
395,395,2,29,8,3,209,software
396,396,12,21,6,27,99,realestate
397,397,0,21,0,12,119,software
398,398,4,17,9,23,152,realestate
399,399,13,28,5,8,135,education
400,400,17,26,4,23,204,retail
401,401,1,21,3,2,204,education
402,402,9,0,2,20,69,realestate
403,403,19,12,1,15,110,pharmaceutical
404,404,4,4,5,1,131,software
405,405,14,24,8,16,187,realestate
406,406,14,18,1,15,188,retail
407,407,10,5,5,26,124,education
408,408,4,17,5,0,133,retail
409,409,9,25,4,0,49,software
410,410,19,29,9,12,101,software
411,411,18,15,0,26,53,retail
412,412,17,3,7,29,183,realestate
413,413,16,20,8,11,154,software
414,414,15,15,5,29,209,software
415,415,3,21,0,22,211,retail
416,416,6,17,6,2,40,financial
417,417,9,17,0,28,65,pharmaceutical
418,418,4,21,0,26,177,software
419,419,8,11,4,24,199,financial
420,420,19,12,8,12,87,education
421,421,1,12,2,29,206,financial
422,422,19,6,0,14,73,pharmaceutical
423,423,18,1,1,23,83,financial
424,424,6,7,1,6,40,education
425,425,1,7,7,21,209,financial
426,426,14,29,6,18,179,realestate
427,427,4,27,1,13,188,financial
428,428,1,5,3,14,229,realestate
429,429,7,4,2,10,139,pharmaceutical
430,430,15,14,5,3,215,pharmaceutical
431,431,0,6,0,19,121,software
432,432,18,22,8,18,83,financial
433,433,17,26,7,1,191,education
434,434,5,13,6,0,99,retail
435,435,6,21,5,29,74,financial
436,436,19,23,3,26,73,financial
437,437,7,10,9,9,158,retail
438,438,8,10,0,10,165,realestate
439,439,1,3,1,4,181,financial
440,440,0,13,0,15,123,software
441,441,5,2,5,25,136,retail
442,442,18,21,4,1,87,pharmaceutical
443,443,13,8,6,25,125,retail
444,444,2,27,8,29,208,retail
445,445,5,9,7,0,97,retail
446,446,10,17,4,20,143,software
447,447,0,0,1,23,122,financial
448,448,19,27,3,17,91,software
449,449,11,22,8,4,126,pharmaceutical
450,450,1,28,6,3,170,financial
451,451,9,15,8,15,90,education
452,452,13,11,4,1,140,pharmaceutical
453,453,10,28,8,8,105,realestate
454,454,16,12,3,29,158,retail
455,455,19,1,0,3,92,software
456,456,1,7,4,5,222,education
457,457,14,16,1,5,199,financial
458,458,12,17,4,16,107,realestate
459,459,13,17,4,22,87,financial
460,460,7,10,6,23,126,financial
461,461,8,26,6,2,156,education
462,462,14,0,7,21,191,retail
463,463,12,14,5,18,92,financial
464,464,0,20,4,4,119,education
465,465,17,9,2,16,192,realestate
466,466,3,14,4,20,213,realestate
467,467,18,25,9,11,93,pharmaceutical
468,468,0,25,5,20,123,software
469,469,17,11,6,25,196,retail
470,470,9,17,0,22,90,software
471,471,2,1,4,22,200,software
472,472,2,14,8,23,213,retail
473,473,12,7,3,25,79,software
474,474,12,13,0,3,108,retail
475,475,18,2,6,23,96,pharmaceutical
476,476,3,3,7,11,175,realestate
477,477,8,16,8,24,148,pharmaceutical
478,478,11,7,0,10,91,realestate
479,479,8,20,8,0,161,realestate
480,480,15,25,0,0,193,realestate
481,481,10,16,2,15,152,realestate
482,482,10,6,5,12,90,pharmaceutical
483,483,5,23,2,22,127,pharmaceutical
484,484,19,20,2,22,102,education
485,485,6,27,9,27,81,education
486,486,17,8,9,7,205,realestate
487,487,7,0,3,22,135,financial
488,488,15,9,3,18,214,realestate
489,489,5,12,3,14,118,realestate
490,490,16,6,3,19,152,software
491,491,15,29,4,28,214,realestate
492,492,12,17,5,16,78,pharmaceutical
493,493,13,7,9,4,92,pharmaceutical
494,494,18,23,1,17,90,financial
495,495,4,2,7,22,193,realestate
496,496,6,10,4,23,41,software
497,497,13,16,4,23,86,financial
498,498,4,5,5,10,162,education
499,499,3,15,7,29,217,education
500,500,13,2,8,6,141,financial
501,501,11,16,3,3,121,realestate
502,502,3,8,5,24,166,retail
503,503,8,15,0,8,159,education
504,504,14,24,5,28,189,realestate
505,505,9,4,4,7,83,education
506,506,2,9,0,29,211,financial
507,507,17,8,0,2,188,realestate
508,508,17,25,8,23,191,retail
509,509,16,5,2,25,161,retail
510,510,2,29,3,3,217,financial
511,511,2,0,1,10,205,software
512,512,1,27,0,1,222,realestate
513,513,15,14,6,13,205,education
514,514,5,10,7,20,127,financial
515,515,17,2,5,20,188,education
516,516,15,15,2,17,208,education
517,517,3,22,4,3,194,education
518,518,5,18,3,19,124,software
519,519,11,21,6,7,140,pharmaceutical
520,520,14,15,1,21,197,education
521,521,19,10,1,5,83,realestate
522,522,2,21,8,25,201,financial
523,523,1,28,0,28,168,pharmaceutical
524,524,8,11,5,22,110,education
525,525,9,9,1,28,68,financial
526,526,6,23,2,7,60,education
527,527,5,11,6,12,105,education
528,528,14,9,9,4,180,pharmaceutical
529,529,13,25,7,22,107,education
530,530,17,11,8,6,185,education
531,531,17,20,4,9,205,pharmaceutical
532,532,9,3,9,0,100,education
533,533,14,29,5,19,188,education
534,534,10,1,5,8,149,financial
535,535,15,3,9,24,179,realestate
536,536,16,10,1,15,151,pharmaceutical
537,537,2,18,0,2,217,software
538,538,13,14,2,28,114,realestate
539,539,2,6,1,14,217,software
540,540,19,10,2,25,115,realestate
541,541,5,27,5,7,124,realestate
542,542,12,19,0,13,107,financial
543,543,2,24,2,26,212,realestate
544,544,7,26,9,17,150,software
545,545,14,21,0,22,180,retail
546,546,16,28,2,8,162,retail
547,547,3,6,3,1,171,financial
548,548,4,15,3,3,193,retail
549,549,19,23,9,11,101,software
550,550,5,20,9,1,106,pharmaceutical
551,551,15,27,3,11,197,software
552,552,4,14,2,3,152,financial
553,553,12,1,7,27,105,software
554,554,18,17,6,6,61,realestate
555,555,14,8,8,18,192,software
556,556,17,28,9,8,186,financial
557,557,12,7,5,12,96,financial
558,558,3,24,4,28,193,education
559,559,14,11,4,1,192,pharmaceutical
560,560,10,9,7,7,158,pharmaceutical
561,561,4,5,1,14,187,retail
562,562,1,19,9,27,158,software
563,563,9,0,4,3,76,financial
564,564,12,19,9,20,82,retail
565,565,12,29,1,11,109,education
566,566,3,14,9,19,214,software
567,567,16,12,4,11,146,software
568,568,4,18,6,2,151,software
569,569,4,5,9,14,155,financial
570,570,3,0,0,19,184,retail
571,571,1,12,7,20,215,software
572,572,5,1,7,6,116,software
573,573,11,0,8,23,104,financial
574,574,9,23,2,5,73,financial
575,575,5,15,5,3,111,software
576,576,11,28,4,27,105,realestate
577,577,3,21,0,18,186,education
578,578,9,21,8,11,94,pharmaceutical
579,579,0,7,4,27,123,pharmaceutical
580,580,11,10,4,20,112,education
581,581,17,5,7,1,193,realestate
582,582,12,18,5,3,101,software
583,583,18,18,9,10,101,software
584,584,2,2,8,11,216,realestate
585,585,0,6,8,12,123,education
586,586,3,15,1,18,173,retail
587,587,7,7,2,19,154,pharmaceutical
588,588,17,3,2,26,199,retail
589,589,14,16,4,10,193,software
590,590,0,21,5,24,123,software
591,591,7,19,0,24,141,retail
592,592,7,10,5,20,152,realestate
593,593,19,1,9,4,104,pharmaceutical
594,594,19,7,2,7,83,realestate
595,595,8,28,7,23,131,retail
596,596,10,4,3,26,126,software
597,597,15,10,8,24,219,financial
598,598,6,28,0,8,62,software
599,599,18,26,8,11,95,software
600,600,1,2,6,4,206,realestate
601,601,14,4,2,11,197,education
602,602,13,12,9,12,141,realestate
603,603,14,23,0,0,189,retail
604,604,15,18,9,16,205,pharmaceutical
605,605,10,9,5,22,129,realestate
606,606,4,14,5,29,169,education
607,607,10,28,4,26,143,pharmaceutical
608,608,2,8,9,15,210,realestate
609,609,9,15,9,9,87,financial
610,610,2,6,2,13,215,financial
611,611,3,6,8,0,197,pharmaceutical
612,612,6,0,0,18,40,retail
613,613,17,4,8,22,190,software
614,614,19,5,4,9,100,retail
615,615,12,19,8,25,99,realestate
616,616,0,29,7,23,119,retail
617,617,2,26,6,10,215,education
618,618,7,14,1,23,127,financial
619,619,4,18,4,11,142,financial
620,620,19,25,9,25,95,financial
621,621,4,22,5,21,153,retail
622,622,2,26,0,5,204,education
623,623,17,22,9,0,195,pharmaceutical
624,624,9,9,4,6,73,retail
625,625,17,4,5,22,203,financial
626,626,5,14,0,10,105,realestate
627,627,17,2,8,29,199,realestate
628,628,8,5,8,6,207,education
629,629,2,9,3,15,205,retail
630,630,18,14,4,19,102,pharmaceutical
631,631,1,18,0,4,223,pharmaceutical
632,632,12,4,7,22,82,financial
633,633,9,25,1,23,57,financial
634,634,8,29,6,26,117,pharmaceutical
635,635,16,16,9,1,148,retail
636,636,18,0,1,27,95,pharmaceutical
637,637,7,18,6,20,130,pharmaceutical
638,638,10,4,7,20,100,realestate
639,639,9,11,3,13,84,software
640,640,11,2,2,12,124,software
641,641,5,28,8,15,135,retail
642,642,17,22,3,3,205,realestate
643,643,2,15,8,26,216,financial
644,644,11,27,9,19,133,financial
645,645,8,5,4,24,204,software
646,646,2,26,2,20,211,pharmaceutical
647,647,10,29,4,24,93,financial
648,648,13,14,9,4,88,software
649,649,3,20,4,28,195,retail
650,650,17,8,7,21,188,education
651,651,10,16,8,4,158,financial
652,652,3,12,3,3,170,financial
653,653,0,24,5,24,123,financial
654,654,13,13,6,22,93,financial
655,655,15,20,2,6,218,realestate
656,656,7,24,4,0,158,software
657,657,12,17,5,28,110,financial
658,658,9,25,4,7,89,software
659,659,3,26,1,1,184,realestate
660,660,9,19,9,4,47,education
661,661,4,22,2,15,132,retail
662,662,16,12,3,9,162,retail
663,663,6,29,8,25,50,software
664,664,13,18,1,11,132,retail
665,665,1,9,4,1,224,software
666,666,2,25,0,4,213,pharmaceutical
667,667,1,29,1,21,180,financial
668,668,1,10,7,23,162,retail
669,669,0,17,8,2,123,software
670,670,10,27,3,10,153,software
671,671,7,2,9,17,157,pharmaceutical
672,672,4,14,1,13,132,software
673,673,10,5,0,1,136,pharmaceutical
674,674,8,24,9,12,193,financial
675,675,0,12,4,18,121,realestate
676,676,5,0,2,13,117,education
677,677,16,8,4,19,161,pharmaceutical
678,678,16,19,1,19,161,retail
679,679,11,28,5,16,116,financial
680,680,11,27,6,5,116,financial
681,681,3,1,0,5,181,software
682,682,13,2,3,6,86,software
683,683,11,25,3,26,98,financial
684,684,10,11,1,10,124,software
685,685,8,5,8,9,191,realestate
686,686,4,4,3,25,160,software
687,687,13,18,8,17,97,financial
688,688,7,21,6,6,167,retail
689,689,1,8,8,20,168,retail
690,690,17,9,0,23,205,realestate
691,691,14,27,6,13,197,financial
692,692,2,15,5,22,205,education
693,693,0,12,8,8,119,retail
694,694,19,27,0,9,97,pharmaceutical
695,695,12,7,9,17,109,realestate
696,696,8,29,0,24,164,software
697,697,5,24,1,24,131,financial
698,698,1,17,1,3,232,retail
699,699,7,22,1,16,127,software
700,700,5,4,2,6,99,software
701,701,3,12,2,29,203,financial
702,702,9,5,1,17,52,realestate
703,703,11,22,0,8,108,realestate
704,704,11,26,6,3,113,retail
705,705,14,0,7,1,198,software
706,706,13,12,8,12,93,software
707,707,4,24,4,9,192,education
708,708,13,10,0,21,134,financial
709,709,19,6,7,23,74,retail
710,710,1,27,0,3,207,education
711,711,11,28,1,1,106,realestate
712,712,12,8,6,3,92,financial
713,713,1,6,4,7,170,financial
714,714,15,19,4,24,218,retail
715,715,0,25,7,24,119,software
716,716,11,9,6,3,106,pharmaceutical
717,717,2,5,1,12,209,realestate
718,718,15,25,7,16,180,pharmaceutical
719,719,0,24,1,8,123,realestate
720,720,3,3,9,28,217,financial
721,721,15,9,8,21,184,education
722,722,12,23,9,15,88,realestate
723,723,9,3,4,0,44,software
724,724,17,25,1,21,195,pharmaceutical
725,725,15,19,7,4,194,retail
726,726,4,27,5,20,165,software
727,727,4,9,6,28,155,realestate
728,728,12,20,4,23,92,financial
729,729,2,6,2,12,211,retail
730,730,15,21,3,5,181,financial
731,731,4,27,6,11,161,pharmaceutical
732,732,8,7,9,24,147,software
733,733,11,0,8,7,109,pharmaceutical
734,734,10,28,1,12,126,education
735,735,14,10,0,19,189,retail
736,736,5,14,3,1,119,financial
737,737,10,15,4,19,124,realestate
738,738,11,3,5,0,117,retail
739,739,4,16,1,23,172,software
740,740,2,22,8,3,214,retail
741,741,16,7,3,26,161,education
742,742,10,10,4,28,122,realestate
743,743,3,14,4,6,194,pharmaceutical
744,744,13,3,7,5,103,software
745,745,14,7,5,28,182,realestate
746,746,4,3,3,11,146,retail
747,747,16,7,6,8,157,realestate
748,748,2,26,3,10,208,education
749,749,16,17,3,5,157,realestate
750,750,19,6,3,17,119,education
751,751,8,1,4,20,192,education
752,752,0,2,1,0,119,financial
753,753,0,19,0,26,121,pharmaceutical
754,754,13,8,2,14,144,realestate
755,755,10,13,1,6,104,software
756,756,0,8,2,5,123,financial
757,757,14,17,1,5,199,retail
758,758,6,10,4,22,79,pharmaceutical
759,759,17,19,9,0,191,financial
760,760,19,29,7,5,106,pharmaceutical
761,761,12,12,8,21,88,education
762,762,2,19,5,14,209,pharmaceutical
763,763,18,11,7,22,61,pharmaceutical
764,764,12,12,5,6,97,software
765,765,4,23,5,14,151,education
766,766,10,7,0,14,111,pharmaceutical
767,767,7,6,4,12,151,software
768,768,6,9,6,20,48,financial
769,769,9,13,9,27,78,pharmaceutical
770,770,2,4,7,15,209,education
771,771,14,0,7,7,191,education
772,772,12,16,2,21,102,realestate
773,773,11,1,5,2,113,pharmaceutical
774,774,6,11,1,22,85,software
775,775,2,4,0,0,216,realestate
776,776,9,23,3,7,62,software
777,777,13,27,0,16,97,software
778,778,10,19,6,27,139,realestate
779,779,9,10,1,1,93,pharmaceutical
780,780,8,9,6,0,144,realestate
781,781,6,17,4,26,40,pharmaceutical
782,782,8,14,9,9,164,realestate
783,783,19,2,2,12,119,education
784,784,14,2,6,19,179,retail
785,785,17,6,7,5,196,software
786,786,14,19,3,26,183,retail
787,787,11,24,7,18,107,education
788,788,11,16,9,20,103,pharmaceutical
789,789,10,26,0,3,141,education
790,790,18,25,4,7,97,financial
791,791,16,1,1,6,154,retail
792,792,7,18,5,7,150,education
793,793,2,21,1,24,199,realestate
794,794,17,29,1,8,192,financial
795,795,18,19,7,22,87,retail
796,796,12,19,8,14,89,retail
797,797,18,20,2,23,69,financial
798,798,0,8,3,2,119,retail
799,799,18,16,5,18,93,pharmaceutical
800,800,6,16,7,26,40,realestate
801,801,13,20,8,28,146,software
802,802,5,0,7,23,134,software
803,803,12,20,2,10,84,pharmaceutical
804,804,11,3,4,1,141,financial
805,805,8,18,2,22,184,realestate
806,806,10,8,5,15,134,retail
807,807,5,3,5,0,107,realestate
808,808,6,20,3,18,70,realestate
809,809,3,20,9,0,196,education
810,810,6,19,2,19,42,pharmaceutical
811,811,10,28,6,6,137,realestate
812,812,16,25,2,2,162,pharmaceutical
813,813,2,6,5,3,207,software
814,814,17,17,4,23,185,education
815,815,8,9,1,21,137,realestate
816,816,12,25,6,10,80,pharmaceutical
817,817,9,27,5,20,60,pharmaceutical
818,818,2,10,3,9,216,education
819,819,9,21,6,14,59,financial
820,820,0,4,1,10,119,education
821,821,9,2,6,14,92,financial
822,822,19,28,6,14,81,software
823,823,19,21,7,24,119,education
824,824,17,13,0,14,198,pharmaceutical
825,825,9,20,1,8,91,education
826,826,19,1,6,5,76,education
827,827,8,27,9,12,141,education
828,828,17,19,6,10,200,financial
829,829,13,28,0,19,93,realestate
830,830,1,25,6,9,165,realestate
831,831,8,7,2,6,208,financial
832,832,16,29,8,18,147,retail
833,833,15,4,3,15,201,retail
834,834,14,0,5,23,182,pharmaceutical
835,835,4,25,7,14,156,financial
836,836,8,1,1,13,151,pharmaceutical
837,837,19,24,7,29,93,realestate
838,838,18,14,4,27,103,realestate
839,839,11,14,5,0,108,retail
840,840,10,20,9,28,154,pharmaceutical
841,841,12,27,1,29,80,realestate
842,842,12,17,3,26,93,retail
843,843,10,15,6,19,114,pharmaceutical
844,844,2,8,5,21,207,retail
845,845,5,10,6,25,102,financial
846,846,18,13,2,10,80,retail
847,847,4,0,6,0,168,software
848,848,15,24,5,17,199,financial
849,849,5,2,0,22,121,pharmaceutical
850,850,5,2,8,26,92,realestate
851,851,16,15,9,15,152,retail
852,852,17,15,2,5,198,financial
853,853,1,23,6,13,195,financial
854,854,6,19,2,27,79,realestate
855,855,9,9,1,24,93,education
856,856,12,26,6,9,102,pharmaceutical
857,857,9,28,4,3,49,financial
858,858,6,28,1,22,81,financial
859,859,16,5,6,4,154,realestate
860,860,1,17,2,24,193,retail
861,861,14,27,2,0,196,retail
862,862,0,16,5,26,123,pharmaceutical
863,863,12,28,7,3,82,retail
864,864,1,29,9,17,225,education
865,865,2,3,4,18,203,retail
866,866,12,16,1,0,83,education
867,867,11,17,2,22,132,pharmaceutical
868,868,14,13,6,8,185,realestate
869,869,0,1,5,19,120,realestate
870,870,17,14,3,11,184,financial
871,871,13,13,6,14,113,retail
872,872,18,28,4,1,59,realestate
873,873,4,28,9,5,174,retail
874,874,16,19,0,2,150,pharmaceutical
875,875,3,12,1,10,206,education
876,876,14,21,4,16,187,financial
877,877,0,18,6,9,121,realestate
878,878,16,6,3,26,151,education
879,879,9,20,6,7,63,pharmaceutical
880,880,4,29,4,0,169,retail
881,881,9,2,3,10,99,retail
882,882,6,24,6,6,56,retail
883,883,0,27,4,1,120,retail
884,884,5,3,3,16,108,realestate
885,885,17,29,0,12,185,education
886,886,2,20,0,0,209,retail
887,887,3,23,6,5,173,education
888,888,9,6,8,4,53,software
889,889,17,24,8,25,194,retail
890,890,1,26,8,4,209,pharmaceutical
891,891,10,22,6,2,113,pharmaceutical
892,892,14,16,1,0,194,financial
893,893,8,18,7,21,154,financial
894,894,14,11,0,14,178,realestate
895,895,11,8,3,14,109,realestate
896,896,5,21,2,18,102,pharmaceutical
897,897,3,1,7,18,168,software
898,898,15,1,4,10,213,education
899,899,1,17,3,22,235,software
900,900,5,18,0,2,108,financial
901,901,8,9,5,24,196,financial
902,902,8,12,9,18,142,education
903,903,2,15,2,17,216,pharmaceutical
904,904,18,14,4,11,57,pharmaceutical
905,905,10,4,7,0,114,retail
906,906,6,11,6,26,42,realestate
907,907,19,23,7,1,72,financial
908,908,17,25,9,29,201,pharmaceutical
909,909,18,8,9,25,91,pharmaceutical
910,910,19,22,6,19,82,education
911,911,19,26,3,27,109,pharmaceutical
912,912,16,6,4,1,146,pharmaceutical
913,913,13,23,9,22,133,software
914,914,11,0,1,6,122,education
915,915,17,9,9,21,185,education
916,916,8,12,4,15,202,realestate
917,917,9,0,8,26,52,financial
918,918,12,25,9,5,91,pharmaceutical
919,919,0,2,1,21,122,retail
920,920,13,5,0,12,107,software
921,921,10,5,7,12,114,software
922,922,0,6,6,13,119,retail
923,923,2,13,3,18,219,financial
924,924,12,10,7,11,79,education
925,925,18,18,7,7,80,realestate
926,926,10,16,6,29,93,realestate
927,927,12,11,3,16,95,retail
928,928,12,14,7,6,97,retail
929,929,10,25,9,19,144,retail
930,930,3,6,3,12,193,retail
931,931,18,10,5,14,67,financial
932,932,17,10,4,7,190,software
933,933,6,22,1,20,46,financial
934,934,10,22,4,18,112,retail
935,935,14,14,7,18,179,financial
936,936,1,8,5,16,189,retail
937,937,19,10,0,25,113,financial
938,938,7,26,7,6,131,realestate
939,939,7,2,9,24,131,financial
940,940,18,2,9,13,83,software
941,941,7,18,3,29,140,realestate
942,942,10,0,1,3,93,realestate
943,943,12,12,2,4,86,financial
944,944,2,8,3,13,212,financial
945,945,8,28,0,8,139,retail
946,946,15,17,7,7,192,retail
947,947,11,19,7,2,96,education
948,948,7,22,3,10,135,pharmaceutical
949,949,6,20,4,14,73,financial
950,950,12,6,9,22,107,realestate
951,951,5,1,2,21,115,education
952,952,6,17,7,24,80,education
953,953,0,23,5,1,119,realestate
954,954,14,15,9,12,194,realestate
955,955,12,20,7,16,85,pharmaceutical
956,956,1,8,0,29,220,education
957,957,18,19,3,0,100,software
958,958,17,8,8,1,188,software
959,959,0,19,9,12,123,pharmaceutical
960,960,1,28,2,18,196,software
961,961,14,9,0,11,193,pharmaceutical
962,962,4,8,2,9,192,financial
963,963,14,27,0,14,192,pharmaceutical
964,964,15,5,6,29,217,retail
965,965,18,10,8,21,85,financial
966,966,8,5,2,29,185,education
967,967,10,3,7,28,156,education
968,968,0,9,8,9,122,financial
969,969,2,3,4,27,217,realestate
970,970,5,24,7,29,107,retail
971,971,12,18,0,13,106,realestate
972,972,13,13,4,20,115,software
973,973,11,24,3,17,126,financial
974,974,14,20,9,9,185,education
975,975,11,3,4,5,120,realestate
976,976,4,27,4,19,171,education
977,977,10,0,3,20,112,retail
978,978,10,26,2,21,150,retail
979,979,6,27,4,28,49,financial
980,980,17,3,7,15,184,pharmaceutical
981,981,14,27,3,4,184,realestate
982,982,5,23,5,19,99,software
983,983,12,7,6,9,90,retail
984,984,12,9,6,11,81,pharmaceutical
985,985,14,12,3,25,189,realestate
986,986,13,6,0,19,91,retail
987,987,3,7,0,12,217,retail
988,988,3,1,3,4,168,software
989,989,4,3,0,18,167,realestate
990,990,15,5,6,7,218,realestate
991,991,6,21,2,9,75,software
992,992,14,21,8,2,188,financial
993,993,8,5,0,1,203,financial
994,994,18,0,8,12,89,education
995,995,17,23,0,27,187,retail
996,996,2,1,4,12,212,financial
997,997,16,5,5,11,161,pharmaceutical
998,998,17,9,0,27,202,financial
999,999,9,15,6,10,101,pharmaceutical
1000,1000,4,13,7,14,176,software
1001,1001,12,29,2,6,88,retail
1002,1002,9,18,7,26,58,realestate
1003,1003,8,0,1,16,189,realestate
1004,1004,10,5,0,0,138,financial
1005,1005,18,0,7,11,80,education
1006,1006,10,24,5,8,137,realestate
1007,1007,13,1,5,26,93,financial
1008,1008,12,3,2,9,101,education
1009,1009,1,28,1,3,208,retail
1010,1010,12,6,7,27,91,financial
1011,1011,2,15,4,22,201,software
1012,1012,14,7,2,26,196,software
1013,1013,19,25,7,7,101,education
1014,1014,3,23,7,26,204,financial
1015,1015,16,22,4,12,148,realestate
1016,1016,9,7,3,28,87,education
1017,1017,9,19,9,24,43,retail
1018,1018,8,22,7,25,156,retail
1019,1019,1,20,8,18,182,realestate
1020,1020,1,3,9,16,174,retail
1021,1021,6,2,5,18,75,pharmaceutical
1022,1022,7,1,0,20,147,education
1023,1023,10,6,7,8,118,pharmaceutical
1024,1024,1,9,3,19,179,realestate
1025,1025,0,16,7,15,121,education
1026,1026,5,18,3,6,110,retail
1027,1027,18,1,1,9,75,realestate
1028,1028,11,10,9,21,137,realestate
1029,1029,16,27,3,27,161,pharmaceutical
1030,1030,14,22,9,4,183,pharmaceutical
1031,1031,3,8,3,6,196,software
1032,1032,18,10,8,6,87,financial
1033,1033,9,18,0,16,95,retail
1034,1034,16,5,4,2,162,realestate
1035,1035,4,10,3,27,176,retail
1036,1036,6,11,2,9,79,software
1037,1037,16,22,8,5,161,financial
1038,1038,11,18,5,11,127,realestate
1039,1039,12,9,2,8,85,retail
1040,1040,4,23,7,11,164,software
1041,1041,15,16,0,20,183,education
1042,1042,13,28,7,18,108,pharmaceutical
1043,1043,6,21,2,21,73,software
1044,1044,2,12,2,22,206,pharmaceutical
1045,1045,16,26,5,27,148,software
1046,1046,19,2,1,18,87,retail
1047,1047,14,20,3,26,184,realestate
1048,1048,15,0,1,23,204,pharmaceutical
1049,1049,12,6,3,2,91,financial
1050,1050,15,1,7,29,209,realestate
1051,1051,4,12,9,6,185,financial
1052,1052,12,21,1,19,84,education
1053,1053,17,20,7,1,200,retail
1054,1054,1,22,3,20,214,education
1055,1055,9,6,8,14,87,realestate
1056,1056,11,29,8,8,129,financial
1057,1057,6,26,1,14,40,realestate
1058,1058,13,15,8,15,130,retail
1059,1059,7,25,0,25,141,education
1060,1060,12,16,6,15,97,software
1061,1061,2,5,3,22,206,financial
1062,1062,18,4,5,5,88,financial
1063,1063,13,10,4,8,116,pharmaceutical
1064,1064,5,23,9,10,117,pharmaceutical
1065,1065,8,7,0,25,147,retail
1066,1066,12,6,8,8,90,financial
1067,1067,8,28,1,10,204,software
1068,1068,4,6,2,22,164,education
1069,1069,18,24,2,24,58,realestate
1070,1070,12,20,5,18,109,education
1071,1071,12,12,2,22,104,retail
1072,1072,4,27,4,0,181,pharmaceutical
1073,1073,17,26,3,25,196,realestate
1074,1074,5,5,2,20,129,education
1075,1075,4,5,8,7,186,software
1076,1076,10,28,4,17,152,software
1077,1077,5,27,4,20,129,pharmaceutical
1078,1078,17,20,0,10,187,financial
1079,1079,13,18,3,6,114,education
1080,1080,7,28,5,1,124,education
1081,1081,13,24,8,20,100,software
1082,1082,18,0,9,14,84,software
1083,1083,6,26,2,24,65,pharmaceutical
1084,1084,14,10,5,26,186,pharmaceutical
1085,1085,6,20,8,21,78,pharmaceutical
1086,1086,14,6,6,18,195,financial
1087,1087,18,1,2,28,65,education
1088,1088,19,20,3,11,71,software
1089,1089,1,12,7,23,177,education
1090,1090,10,26,2,9,122,financial
1091,1091,14,13,7,27,181,realestate
1092,1092,19,27,4,26,91,software
1093,1093,19,5,1,0,85,pharmaceutical
1094,1094,2,3,8,14,208,software
1095,1095,7,22,7,15,160,education
1096,1096,12,18,1,19,80,pharmaceutical
1097,1097,14,1,3,26,180,software
1098,1098,2,4,8,16,205,software
1099,1099,11,28,2,5,131,pharmaceutical
1100,1100,13,16,0,15,114,pharmaceutical
1101,1101,2,8,1,24,207,financial
1102,1102,14,24,7,29,198,retail
1103,1103,11,4,1,29,141,pharmaceutical
1104,1104,18,25,9,26,93,pharmaceutical
1105,1105,18,20,5,8,96,financial
1106,1106,8,26,4,16,161,realestate
1107,1107,14,22,4,10,199,education
1108,1108,9,21,5,1,96,pharmaceutical
1109,1109,10,8,1,10,103,education
1110,1110,16,11,9,27,162,retail
1111,1111,14,8,2,7,194,education
1112,1112,17,21,9,25,193,retail
1113,1113,14,9,1,9,184,pharmaceutical
1114,1114,17,6,3,13,203,retail
1115,1115,17,18,7,5,186,realestate
1116,1116,5,10,4,3,98,pharmaceutical
1117,1117,16,7,1,9,150,pharmaceutical
1118,1118,6,6,9,5,48,pharmaceutical
1119,1119,5,25,0,8,133,retail
1120,1120,11,1,9,0,129,pharmaceutical
1121,1121,5,8,7,11,115,realestate
1122,1122,8,14,3,13,206,retail
1123,1123,13,21,8,25,141,software
1124,1124,3,24,1,21,208,pharmaceutical
1125,1125,2,0,8,3,217,financial
1126,1126,13,27,0,21,124,education
1127,1127,3,21,7,16,200,pharmaceutical
1128,1128,10,21,9,8,118,pharmaceutical
1129,1129,7,17,9,10,155,education
1130,1130,15,19,0,28,212,realestate
1131,1131,15,13,4,10,214,financial
1132,1132,15,29,5,7,196,realestate
1133,1133,18,29,7,10,68,realestate
1134,1134,0,15,0,16,123,retail
1135,1135,0,0,6,4,119,realestate
1136,1136,8,14,8,8,186,education
1137,1137,7,4,2,2,155,education
1138,1138,2,23,5,27,199,retail
1139,1139,14,12,3,28,191,financial
1140,1140,4,3,0,6,133,retail
1141,1141,11,6,7,21,125,software
1142,1142,16,28,4,20,156,education
1143,1143,16,1,8,24,147,pharmaceutical
1144,1144,1,28,7,18,175,education
1145,1145,7,16,4,14,137,realestate
1146,1146,16,2,8,22,152,retail
1147,1147,2,18,8,14,202,software
1148,1148,5,0,8,28,108,education
1149,1149,7,5,6,17,132,realestate
1150,1150,16,4,4,0,151,retail
1151,1151,19,6,2,17,109,realestate
1152,1152,1,22,0,6,157,retail
1153,1153,12,25,5,3,101,retail
1154,1154,15,16,3,14,207,financial
1155,1155,18,27,2,28,102,pharmaceutical
1156,1156,13,12,4,25,134,financial
1157,1157,10,7,3,12,88,realestate
1158,1158,16,17,2,15,162,education
1159,1159,8,21,7,14,158,education
1160,1160,12,23,1,5,102,retail
1161,1161,10,14,4,15,113,pharmaceutical
1162,1162,17,18,5,17,186,realestate
1163,1163,3,10,5,28,181,retail
1164,1164,0,26,2,5,119,software
1165,1165,13,9,3,17,95,software
1166,1166,19,7,3,19,115,education
1167,1167,4,8,6,8,184,software
1168,1168,11,26,3,27,96,financial
1169,1169,0,13,6,15,119,realestate
1170,1170,11,11,9,3,128,financial
1171,1171,6,23,3,11,43,retail
1172,1172,13,0,6,14,115,retail
1173,1173,16,8,2,29,149,software
1174,1174,15,7,7,29,188,financial
1175,1175,11,26,2,26,128,software
1176,1176,6,17,5,5,50,retail
1177,1177,17,29,6,0,202,retail
1178,1178,3,21,8,17,171,realestate
1179,1179,9,21,2,27,105,realestate
1180,1180,8,17,2,21,139,pharmaceutical
1181,1181,19,15,9,3,90,financial
1182,1182,9,24,5,9,104,realestate
1183,1183,8,28,7,3,134,financial
1184,1184,2,16,3,3,207,realestate
1185,1185,12,13,9,24,81,software
1186,1186,15,5,1,1,199,software
1187,1187,6,19,5,14,84,financial
1188,1188,3,3,1,18,210,software
1189,1189,9,0,3,18,70,pharmaceutical
1190,1190,18,23,9,24,95,retail
1191,1191,7,23,5,21,150,education
1192,1192,10,20,9,21,95,financial
1193,1193,8,16,8,23,173,realestate
1194,1194,6,12,8,8,84,software
1195,1195,14,5,8,7,199,pharmaceutical
1196,1196,11,2,0,24,97,pharmaceutical
1197,1197,7,21,1,7,134,financial
1198,1198,15,2,4,25,210,realestate
1199,1199,9,12,8,26,54,retail
1200,1200,3,19,1,25,180,pharmaceutical
1201,1201,4,18,9,27,176,retail
1202,1202,8,21,0,23,134,financial
1203,1203,15,6,8,4,189,education
1204,1204,6,6,8,24,62,software
1205,1205,18,24,3,21,72,pharmaceutical
1206,1206,6,20,3,6,77,software
1207,1207,12,19,6,22,107,financial
1208,1208,1,8,7,24,220,education
1209,1209,4,19,9,22,193,software
1210,1210,6,17,9,27,58,software
1211,1211,18,15,1,27,67,realestate
1212,1212,4,23,4,4,167,pharmaceutical
1213,1213,16,6,0,21,161,software
1214,1214,8,16,3,28,163,retail
1215,1215,14,26,8,17,181,pharmaceutical
1216,1216,6,18,7,12,77,realestate
1217,1217,5,7,1,5,104,pharmaceutical
1218,1218,12,20,2,24,92,education
1219,1219,1,29,4,12,163,education
1220,1220,3,0,3,3,184,retail
1221,1221,14,16,7,6,198,realestate
1222,1222,4,7,7,26,168,financial
1223,1223,10,20,2,18,97,realestate
1224,1224,3,20,4,23,202,software
1225,1225,5,23,5,4,132,pharmaceutical
1226,1226,16,28,7,20,151,realestate
1227,1227,2,4,0,8,219,education
1228,1228,17,18,6,11,189,pharmaceutical
1229,1229,17,7,2,15,203,software
1230,1230,3,2,3,6,186,realestate
1231,1231,15,15,8,17,180,education
1232,1232,12,15,2,1,89,retail
1233,1233,16,20,1,4,146,realestate
1234,1234,19,4,5,2,105,realestate
1235,1235,9,1,4,20,98,software
1236,1236,18,16,1,16,83,education
1237,1237,4,11,8,20,172,financial
1238,1238,15,25,0,25,198,education
1239,1239,14,13,4,21,183,retail
1240,1240,6,29,5,20,64,financial
1241,1241,16,27,6,24,157,realestate
1242,1242,9,13,8,15,102,retail
1243,1243,1,18,9,18,188,realestate
1244,1244,0,3,9,20,119,education
1245,1245,14,20,3,15,195,pharmaceutical
1246,1246,2,16,5,27,216,education
1247,1247,3,17,0,1,182,pharmaceutical
1248,1248,12,8,0,0,94,realestate
1249,1249,13,8,0,13,99,financial
1250,1250,14,9,8,22,186,realestate
1251,1251,3,21,1,4,181,realestate
1252,1252,9,21,2,15,91,realestate
1253,1253,6,12,9,22,74,pharmaceutical
1254,1254,6,13,6,28,80,financial
1255,1255,4,2,9,2,195,realestate
1256,1256,1,22,3,29,230,pharmaceutical
1257,1257,1,24,1,3,191,realestate
1258,1258,17,17,1,24,195,retail
1259,1259,5,4,5,7,134,education
1260,1260,9,7,8,12,82,software
1261,1261,13,14,1,17,86,software
1262,1262,7,21,6,0,144,education
1263,1263,5,14,6,18,135,retail
1264,1264,1,21,9,16,221,pharmaceutical
1265,1265,12,8,5,12,105,retail
1266,1266,17,19,3,14,205,retail
1267,1267,8,10,8,11,134,pharmaceutical
1268,1268,2,12,1,14,206,education
1269,1269,14,14,9,9,195,realestate
1270,1270,10,10,0,16,122,realestate
1271,1271,2,8,9,0,210,realestate
1272,1272,5,20,1,25,138,education
1273,1273,8,28,1,0,207,software
1274,1274,8,18,4,14,138,retail
1275,1275,2,29,9,5,204,pharmaceutical
1276,1276,12,28,4,17,97,education
1277,1277,14,14,3,7,191,software
1278,1278,10,15,5,23,126,realestate
1279,1279,3,4,9,26,184,retail
1280,1280,13,0,2,13,136,education
1281,1281,6,13,2,3,59,pharmaceutical
1282,1282,9,9,6,16,66,retail
1283,1283,8,6,6,0,156,realestate
1284,1284,7,15,7,12,150,education
1285,1285,15,2,4,22,218,retail
1286,1286,11,23,9,0,97,realestate
1287,1287,10,3,5,14,133,software
1288,1288,10,28,0,10,91,financial
1289,1289,15,18,8,17,203,pharmaceutical
1290,1290,8,9,8,20,137,software
1291,1291,0,18,4,3,119,retail
1292,1292,11,9,1,12,92,financial
1293,1293,13,0,7,10,121,financial
1294,1294,4,10,2,14,190,education
1295,1295,7,3,2,20,124,education
1296,1296,15,29,8,13,208,financial
1297,1297,11,15,9,11,120,education
1298,1298,14,26,2,12,184,realestate
1299,1299,8,25,3,14,141,pharmaceutical
1300,1300,0,0,7,28,121,realestate
1301,1301,16,13,4,22,155,realestate
1302,1302,10,0,0,5,127,software
1303,1303,15,24,6,0,178,software
1304,1304,6,0,0,1,38,software
1305,1305,13,10,7,13,98,software
1306,1306,3,19,2,5,210,realestate
1307,1307,1,1,3,14,214,education
1308,1308,17,16,4,21,194,pharmaceutical
1309,1309,11,20,0,5,108,education
1310,1310,1,7,3,16,233,realestate
1311,1311,1,5,8,15,192,realestate
1312,1312,18,12,1,0,77,education
1313,1313,8,15,5,12,166,realestate
1314,1314,10,11,6,14,98,education
1315,1315,4,13,1,12,152,realestate
1316,1316,11,23,3,8,107,financial
1317,1317,15,28,9,9,183,education
1318,1318,11,6,8,10,109,pharmaceutical
1319,1319,7,4,1,4,159,software
1320,1320,19,22,9,24,102,financial
1321,1321,7,4,1,4,155,financial
1322,1322,8,11,4,11,145,financial
1323,1323,3,16,6,26,212,education
1324,1324,7,27,3,19,145,education
1325,1325,4,18,4,19,133,retail
1326,1326,18,9,4,26,101,realestate
1327,1327,10,25,5,14,104,education
1328,1328,6,19,9,1,50,retail
1329,1329,6,5,9,27,55,education
1330,1330,2,8,8,29,205,retail
1331,1331,0,2,8,25,120,pharmaceutical
1332,1332,2,11,9,4,212,software
1333,1333,18,14,0,25,85,retail
1334,1334,12,21,1,16,104,retail
1335,1335,5,20,0,7,123,pharmaceutical
1336,1336,8,24,1,14,149,pharmaceutical
1337,1337,2,1,3,24,202,financial
1338,1338,6,3,6,0,66,retail
1339,1339,13,20,5,2,129,financial
1340,1340,14,20,7,14,193,software
1341,1341,0,24,9,11,123,software
1342,1342,6,22,6,6,55,pharmaceutical
1343,1343,1,0,4,27,226,realestate
1344,1344,0,22,9,21,119,realestate
1345,1345,0,11,9,10,122,financial
1346,1346,15,13,9,19,208,pharmaceutical
1347,1347,10,15,4,25,135,retail
1348,1348,0,1,3,0,119,education
1349,1349,9,8,3,12,68,realestate
1350,1350,12,8,7,25,81,realestate
1351,1351,4,26,1,15,142,software
1352,1352,7,2,0,2,159,financial
1353,1353,11,20,8,3,97,pharmaceutical
1354,1354,7,8,6,1,163,education
1355,1355,7,16,0,6,144,pharmaceutical
1356,1356,1,8,3,11,162,financial
1357,1357,2,7,9,8,211,software
1358,1358,0,20,8,21,119,financial
1359,1359,13,29,3,17,111,software
1360,1360,10,6,7,27,116,pharmaceutical
1361,1361,9,21,7,7,50,financial
1362,1362,6,12,9,5,44,pharmaceutical
1363,1363,10,5,7,27,158,software
1364,1364,12,14,8,20,82,pharmaceutical
1365,1365,4,27,3,24,138,pharmaceutical
1366,1366,16,8,3,12,156,realestate
1367,1367,17,9,2,1,201,pharmaceutical
1368,1368,12,17,4,24,102,financial
1369,1369,12,5,1,22,106,financial
1370,1370,1,24,6,16,212,retail
1371,1371,4,0,0,3,139,realestate
1372,1372,15,5,3,8,185,retail
1373,1373,3,4,7,29,202,education
1374,1374,18,26,7,22,55,financial
1375,1375,4,5,1,22,174,retail
1376,1376,18,15,9,22,53,financial
1377,1377,14,16,6,3,197,software
1378,1378,17,10,8,4,199,retail
1379,1379,8,23,6,15,175,software
1380,1380,11,18,0,7,94,education
1381,1381,17,4,5,15,183,education
1382,1382,19,25,1,15,106,realestate
1383,1383,8,19,3,11,123,education
1384,1384,16,20,0,0,152,software
1385,1385,17,23,3,8,196,retail
1386,1386,12,7,3,27,96,software
1387,1387,6,10,4,21,84,realestate
1388,1388,6,6,5,7,81,realestate
1389,1389,19,19,1,25,81,financial
1390,1390,14,3,8,1,181,financial
1391,1391,8,9,8,16,140,financial
1392,1392,3,22,8,22,167,education
1393,1393,3,25,1,4,179,financial
1394,1394,16,1,7,23,158,pharmaceutical
1395,1395,17,27,7,6,200,software
1396,1396,0,8,6,25,119,software
1397,1397,11,24,9,22,139,education
1398,1398,13,12,4,27,121,financial
1399,1399,2,0,0,1,206,education
1400,1400,18,7,8,26,102,financial
1401,1401,3,2,7,2,170,retail
1402,1402,1,29,4,24,207,software
1403,1403,8,8,2,23,173,financial
1404,1404,17,1,3,5,189,pharmaceutical
1405,1405,12,27,6,18,89,financial
1406,1406,8,5,7,20,155,education
1407,1407,17,21,6,12,199,financial
1408,1408,3,13,0,26,174,financial
1409,1409,18,1,9,12,68,retail
1410,1410,1,15,9,8,167,realestate
1411,1411,13,12,1,25,111,software
1412,1412,14,23,3,1,197,retail
1413,1413,7,10,8,23,151,retail
1414,1414,2,15,5,18,209,financial
1415,1415,7,20,2,7,154,software
1416,1416,4,11,9,20,189,financial
1417,1417,1,0,5,27,197,realestate
1418,1418,18,25,8,10,96,retail
1419,1419,8,21,4,21,158,education
1420,1420,17,11,0,13,193,retail
1421,1421,19,1,9,11,91,realestate
1422,1422,2,4,5,0,214,realestate
1423,1423,16,4,7,17,152,realestate
1424,1424,8,1,1,4,154,pharmaceutical
1425,1425,13,5,8,23,119,retail
1426,1426,17,22,4,22,185,software
1427,1427,8,12,9,7,205,education
1428,1428,16,11,2,5,151,pharmaceutical
1429,1429,13,19,8,24,139,pharmaceutical
1430,1430,19,6,9,13,100,software
1431,1431,17,15,0,3,192,software
1432,1432,18,8,7,16,95,education
1433,1433,15,9,6,29,218,retail
1434,1434,4,7,2,8,183,pharmaceutical
1435,1435,19,20,5,0,92,realestate
1436,1436,11,17,2,29,132,software
1437,1437,1,11,1,2,156,software
1438,1438,1,4,1,4,227,retail
1439,1439,5,19,0,16,98,education
1440,1440,6,23,6,8,86,realestate
1441,1441,15,21,4,1,218,pharmaceutical
1442,1442,1,29,2,11,190,pharmaceutical
1443,1443,16,16,8,26,155,pharmaceutical
1444,1444,15,15,3,11,203,software
1445,1445,3,18,8,14,217,retail
1446,1446,1,20,3,1,200,financial
1447,1447,6,12,6,22,52,software
1448,1448,8,24,4,3,185,education
1449,1449,8,8,9,21,130,retail
1450,1450,11,19,7,8,137,financial
1451,1451,3,12,8,28,182,realestate
1452,1452,7,10,8,22,130,realestate
1453,1453,2,12,6,17,202,retail
1454,1454,9,0,2,9,93,retail
1455,1455,0,12,3,17,122,retail
1456,1456,2,14,0,22,213,education
1457,1457,6,4,2,29,39,retail
1458,1458,10,29,5,28,112,software
1459,1459,5,4,1,8,119,software
1460,1460,7,29,0,26,164,pharmaceutical
1461,1461,0,12,6,5,121,retail
1462,1462,7,25,6,9,139,software
1463,1463,13,12,5,27,89,pharmaceutical
1464,1464,19,4,6,5,102,realestate
1465,1465,11,11,3,29,130,financial
1466,1466,7,25,8,7,145,pharmaceutical
1467,1467,3,29,8,22,187,education
1468,1468,13,22,8,5,114,financial
1469,1469,7,19,5,12,150,financial
1470,1470,9,7,0,24,49,realestate
1471,1471,19,16,1,15,105,education
1472,1472,12,17,4,12,101,realestate
1473,1473,18,23,9,28,94,software
1474,1474,18,17,0,23,65,pharmaceutical
1475,1475,14,26,3,4,189,education
1476,1476,6,3,3,7,74,education
1477,1477,1,20,6,16,187,education
1478,1478,15,18,1,8,187,pharmaceutical
1479,1479,1,29,3,23,224,retail
1480,1480,0,29,9,17,122,pharmaceutical
1481,1481,6,5,5,8,79,realestate
1482,1482,10,9,8,17,111,education
1483,1483,10,27,9,12,91,realestate
1484,1484,15,27,2,23,219,retail
1485,1485,13,2,1,23,123,software
1486,1486,5,19,1,24,95,software
1487,1487,13,26,7,20,107,education
1488,1488,5,25,3,1,120,financial
1489,1489,16,14,5,1,148,retail
1490,1490,9,15,4,0,102,education
1491,1491,10,9,9,3,102,realestate
1492,1492,2,12,9,22,219,financial
1493,1493,15,4,0,10,205,financial
1494,1494,8,29,9,7,159,retail
1495,1495,6,21,3,7,49,financial
1496,1496,18,16,9,6,93,software
1497,1497,8,15,8,22,170,retail
1498,1498,10,6,5,20,149,financial
1499,1499,1,22,1,5,217,software
1500,1500,19,21,7,25,111,software
1501,1501,15,23,5,7,183,pharmaceutical
1502,1502,7,27,0,11,164,financial
1503,1503,11,6,2,7,135,retail
1504,1504,9,19,1,19,58,financial
1505,1505,7,10,0,13,143,pharmaceutical
1506,1506,13,18,6,9,139,education
1507,1507,12,26,0,10,89,software
1508,1508,5,11,8,20,97,realestate
1509,1509,10,12,9,29,108,realestate
1510,1510,13,12,6,13,107,financial
1511,1511,18,27,3,15,60,retail
1512,1512,0,26,5,23,119,pharmaceutical
1513,1513,11,23,4,3,101,retail
1514,1514,19,14,4,17,73,software
1515,1515,12,6,9,21,98,retail
1516,1516,13,10,2,18,93,pharmaceutical
1517,1517,19,9,1,0,109,pharmaceutical
1518,1518,14,19,2,11,186,realestate
1519,1519,10,29,2,26,146,financial
1520,1520,1,18,0,10,231,education
1521,1521,8,1,5,23,174,realestate
1522,1522,12,11,4,19,85,education
1523,1523,0,20,0,26,121,pharmaceutical
1524,1524,19,11,1,11,100,pharmaceutical
1525,1525,6,12,0,5,63,education
1526,1526,7,3,6,23,122,financial
1527,1527,1,2,0,2,220,financial
1528,1528,15,13,1,17,178,pharmaceutical
1529,1529,9,10,4,3,67,software
1530,1530,2,17,9,1,199,pharmaceutical
1531,1531,17,21,0,7,198,pharmaceutical
1532,1532,2,21,0,27,206,retail
1533,1533,8,27,4,1,205,pharmaceutical
1534,1534,15,25,4,14,206,financial
1535,1535,10,25,6,6,159,software
1536,1536,12,26,1,22,104,software
1537,1537,1,24,3,3,224,software
1538,1538,12,29,6,27,107,pharmaceutical
1539,1539,4,26,2,9,141,pharmaceutical
1540,1540,6,21,2,20,66,pharmaceutical
1541,1541,9,7,4,9,84,software
1542,1542,2,4,9,11,207,retail
1543,1543,3,1,9,6,202,realestate
1544,1544,15,1,6,5,216,realestate
1545,1545,18,23,6,2,95,financial
1546,1546,6,3,8,10,81,education
1547,1547,11,22,4,1,110,pharmaceutical
1548,1548,1,21,7,9,171,realestate
1549,1549,19,5,2,4,100,retail
1550,1550,19,20,8,12,93,education
1551,1551,8,26,2,4,163,realestate
1552,1552,17,22,8,26,204,education
1553,1553,9,16,2,5,104,education
1554,1554,9,28,6,27,105,realestate
1555,1555,19,20,9,15,96,software
1556,1556,16,12,9,4,152,realestate
1557,1557,5,0,5,4,112,financial
1558,1558,12,9,3,28,97,pharmaceutical
1559,1559,9,1,0,6,65,financial
1560,1560,2,16,4,27,204,financial
1561,1561,15,19,0,19,195,financial
1562,1562,13,21,3,27,118,education
1563,1563,11,22,5,16,103,realestate
1564,1564,13,4,2,18,96,financial
1565,1565,10,6,9,0,137,realestate
1566,1566,18,12,8,6,95,pharmaceutical
1567,1567,15,11,5,15,179,pharmaceutical
1568,1568,7,18,7,20,124,retail
1569,1569,9,18,6,5,64,retail
1570,1570,17,4,7,9,196,retail
1571,1571,15,11,3,7,190,retail
1572,1572,0,18,2,18,120,retail
1573,1573,13,8,8,20,87,pharmaceutical
1574,1574,3,14,0,8,205,retail
1575,1575,12,16,8,9,106,realestate
1576,1576,10,24,8,6,129,pharmaceutical
1577,1577,0,8,2,13,123,pharmaceutical
1578,1578,11,2,3,3,95,pharmaceutical
1579,1579,5,2,5,12,115,pharmaceutical
1580,1580,11,16,6,1,137,financial
1581,1581,11,22,3,22,92,financial
1582,1582,5,20,1,23,103,pharmaceutical
1583,1583,14,18,0,2,195,realestate
1584,1584,11,17,7,23,124,education
1585,1585,9,10,7,22,90,financial
1586,1586,10,7,6,21,131,education
1587,1587,11,29,0,8,112,financial
1588,1588,1,28,6,17,213,software
1589,1589,5,15,0,5,116,education
1590,1590,6,7,4,28,47,realestate
1591,1591,11,21,0,29,140,financial
1592,1592,3,3,4,12,212,software
1593,1593,6,8,0,8,84,realestate
1594,1594,17,20,8,7,185,education
1595,1595,19,11,1,6,119,retail
1596,1596,0,6,0,14,122,education
1597,1597,17,18,7,15,199,retail
1598,1598,16,1,8,5,156,retail
1599,1599,19,22,0,5,92,education
1600,1600,8,15,1,18,121,education
1601,1601,18,24,8,13,95,pharmaceutical
1602,1602,14,0,4,5,178,pharmaceutical
1603,1603,9,4,9,22,65,retail
1604,1604,4,23,4,13,142,pharmaceutical
1605,1605,0,21,5,3,123,pharmaceutical
1606,1606,7,16,9,16,137,education
1607,1607,4,12,7,28,164,education
1608,1608,5,26,5,25,110,pharmaceutical
1609,1609,1,3,6,18,233,software
1610,1610,5,19,5,25,139,software
1611,1611,0,14,6,6,120,financial
1612,1612,4,3,0,26,170,financial
1613,1613,7,25,1,7,147,retail
1614,1614,4,26,7,5,156,pharmaceutical
1615,1615,8,9,6,0,201,pharmaceutical
1616,1616,13,25,6,2,144,software
1617,1617,17,18,0,7,198,retail
1618,1618,9,17,7,12,96,retail
1619,1619,8,28,7,21,187,retail
1620,1620,0,11,3,6,123,education
1621,1621,1,22,8,17,165,realestate
1622,1622,1,29,9,29,172,software
1623,1623,14,6,9,28,193,realestate
1624,1624,1,18,1,5,188,realestate
1625,1625,13,18,1,22,139,education
1626,1626,8,1,4,13,170,retail
1627,1627,5,11,0,24,133,financial
1628,1628,3,14,6,20,180,financial
1629,1629,13,12,0,7,108,financial
1630,1630,4,4,4,1,146,financial
1631,1631,17,26,0,9,187,realestate
1632,1632,8,23,2,11,192,education
1633,1633,2,25,9,10,202,financial
1634,1634,17,2,7,18,191,financial
1635,1635,2,21,2,22,215,software
1636,1636,12,3,3,11,84,realestate
1637,1637,14,21,0,7,193,pharmaceutical
1638,1638,19,20,7,5,76,education
1639,1639,15,17,2,14,182,retail
1640,1640,8,4,5,4,151,retail
1641,1641,12,7,9,11,96,realestate
1642,1642,10,19,2,27,94,retail
1643,1643,14,4,1,11,195,retail
1644,1644,7,2,6,6,152,pharmaceutical
1645,1645,17,5,8,23,190,software
1646,1646,14,26,9,11,196,pharmaceutical
1647,1647,7,13,9,27,164,realestate
1648,1648,11,7,8,14,102,retail
1649,1649,1,5,7,12,206,financial
1650,1650,4,15,9,21,178,financial
1651,1651,6,7,6,22,84,education
1652,1652,19,0,7,11,102,realestate
1653,1653,16,9,4,19,152,education
1654,1654,7,17,0,28,133,education
1655,1655,6,15,4,14,41,pharmaceutical
1656,1656,5,5,1,6,116,realestate
1657,1657,9,18,2,7,60,realestate
1658,1658,3,27,7,16,168,pharmaceutical
1659,1659,12,28,0,8,85,retail
1660,1660,3,3,9,11,184,education
1661,1661,19,0,7,22,90,retail
1662,1662,2,12,9,22,209,software
1663,1663,1,18,4,11,200,retail
1664,1664,10,20,8,11,147,pharmaceutical
1665,1665,10,3,1,16,91,realestate
1666,1666,9,19,0,15,98,software
1667,1667,17,12,9,27,197,realestate
1668,1668,10,1,3,0,131,education
1669,1669,17,0,6,13,188,pharmaceutical
1670,1670,11,27,0,10,109,financial
1671,1671,9,0,2,16,84,financial
1672,1672,11,1,4,28,131,realestate
1673,1673,6,1,2,9,71,software
1674,1674,9,6,3,22,75,pharmaceutical
1675,1675,16,28,6,9,159,realestate
1676,1676,9,7,1,15,75,retail
1677,1677,14,10,3,22,193,software
1678,1678,6,22,1,9,50,financial
1679,1679,18,26,6,20,61,realestate
1680,1680,3,1,3,9,185,education
1681,1681,4,19,2,23,194,retail
1682,1682,14,29,2,1,185,financial
1683,1683,5,4,9,11,94,pharmaceutical
1684,1684,17,0,3,10,193,software
1685,1685,16,17,2,0,149,pharmaceutical
1686,1686,9,4,7,7,52,retail
1687,1687,4,23,5,6,188,education
1688,1688,3,13,4,19,214,software
1689,1689,18,15,7,18,75,software
1690,1690,19,24,6,17,78,education
1691,1691,2,4,8,9,217,retail
1692,1692,11,14,7,14,104,education
1693,1693,17,16,3,9,194,software
1694,1694,8,11,8,17,166,realestate
1695,1695,8,12,2,6,200,financial
1696,1696,16,1,2,23,160,retail
1697,1697,13,29,4,11,101,financial
1698,1698,17,20,6,23,187,retail
1699,1699,4,12,4,26,156,financial
1700,1700,2,7,3,19,206,education
1701,1701,14,4,0,9,195,software
1702,1702,13,17,2,15,114,pharmaceutical
1703,1703,4,6,8,29,140,education
1704,1704,13,23,8,24,88,financial
1705,1705,18,14,7,23,63,pharmaceutical
1706,1706,10,17,7,6,129,retail
1707,1707,10,9,4,5,127,software
1708,1708,0,28,6,17,119,software
1709,1709,19,27,4,15,106,software
1710,1710,6,12,6,27,43,financial
1711,1711,5,21,3,24,132,pharmaceutical
1712,1712,15,29,4,10,192,software
1713,1713,7,4,1,9,121,education
1714,1714,18,6,6,6,89,realestate
1715,1715,0,12,0,24,119,education
1716,1716,14,23,2,19,182,software
1717,1717,12,20,7,6,79,retail
1718,1718,9,8,6,12,61,software
1719,1719,16,22,9,27,151,education
1720,1720,11,20,0,15,94,pharmaceutical
1721,1721,15,25,0,20,190,pharmaceutical
1722,1722,14,7,8,18,182,retail
1723,1723,13,19,8,9,100,education
1724,1724,7,22,1,28,154,retail
1725,1725,1,8,8,13,227,retail
1726,1726,7,23,9,23,119,education
1727,1727,6,11,8,24,39,software
1728,1728,8,15,0,28,110,realestate
1729,1729,13,18,2,14,88,realestate
1730,1730,11,23,8,22,96,education
1731,1731,14,25,9,24,187,pharmaceutical
1732,1732,6,6,5,26,46,retail
1733,1733,14,4,9,9,198,realestate
1734,1734,12,20,2,10,78,financial
1735,1735,9,0,2,9,46,financial
1736,1736,11,0,1,11,92,software
1737,1737,2,0,8,4,201,financial
1738,1738,13,27,4,21,133,realestate
1739,1739,12,12,8,3,83,education
1740,1740,2,23,6,26,217,retail
1741,1741,19,18,1,17,77,pharmaceutical
1742,1742,2,26,9,29,199,realestate
1743,1743,17,4,5,10,189,education
1744,1744,8,20,4,25,188,software
1745,1745,9,19,4,4,53,software
1746,1746,2,1,7,10,204,retail
1747,1747,17,23,9,21,189,software
1748,1748,11,14,5,17,113,realestate
1749,1749,0,14,7,3,122,software
1750,1750,15,9,5,16,196,retail
1751,1751,8,27,9,26,208,pharmaceutical
1752,1752,0,18,9,22,121,education
1753,1753,5,28,1,7,105,pharmaceutical
1754,1754,14,25,4,12,199,software
1755,1755,15,17,1,9,210,software
1756,1756,8,13,9,19,189,education
1757,1757,10,21,1,12,126,financial
1758,1758,5,25,2,13,119,pharmaceutical
1759,1759,5,18,6,28,97,software
1760,1760,7,28,6,25,135,realestate
1761,1761,7,19,8,14,147,realestate
1762,1762,14,21,4,29,188,software
1763,1763,18,11,3,23,90,retail
1764,1764,4,11,6,17,180,education
1765,1765,8,12,4,28,207,software
1766,1766,6,22,5,12,51,education
1767,1767,14,24,3,15,198,software
1768,1768,13,2,5,22,121,retail
1769,1769,11,25,8,0,109,retail
1770,1770,11,3,8,17,96,pharmaceutical
1771,1771,10,1,1,22,157,software
1772,1772,7,22,4,24,167,education
1773,1773,2,22,5,20,218,education
1774,1774,15,8,0,15,205,financial
1775,1775,18,24,7,9,57,retail
1776,1776,10,14,5,9,89,realestate
1777,1777,3,14,0,16,167,pharmaceutical
1778,1778,17,16,7,4,197,realestate
1779,1779,2,14,3,16,212,realestate
1780,1780,11,8,1,10,96,financial
1781,1781,5,19,6,0,105,realestate
1782,1782,10,11,1,21,150,education
1783,1783,14,16,7,18,194,realestate
1784,1784,11,18,5,8,106,education
1785,1785,12,1,4,29,90,software
1786,1786,14,11,4,4,190,pharmaceutical
1787,1787,10,22,5,15,146,realestate
1788,1788,9,7,4,7,84,education
1789,1789,16,23,6,10,157,realestate
1790,1790,10,8,0,7,109,software
1791,1791,11,1,1,2,96,pharmaceutical
1792,1792,13,20,2,3,105,retail
1793,1793,18,2,2,29,88,financial
1794,1794,5,29,5,23,94,financial
1795,1795,10,13,6,18,106,pharmaceutical
1796,1796,7,22,8,6,121,financial
1797,1797,16,3,7,2,158,retail
1798,1798,15,15,5,17,191,retail
1799,1799,14,2,8,12,197,realestate
1800,1800,14,20,0,7,191,education
1801,1801,0,6,0,26,122,software
1802,1802,14,9,4,4,190,education
1803,1803,0,24,7,5,120,pharmaceutical
1804,1804,17,11,4,4,204,software
1805,1805,0,17,9,29,121,retail
1806,1806,17,25,9,2,200,financial
1807,1807,18,25,6,10,80,pharmaceutical
1808,1808,13,11,3,14,136,realestate
1809,1809,13,7,7,18,140,realestate
1810,1810,10,14,4,13,140,pharmaceutical
1811,1811,13,16,4,4,109,education
1812,1812,10,24,0,6,127,pharmaceutical
1813,1813,1,13,2,2,159,financial
1814,1814,15,1,6,29,181,pharmaceutical
1815,1815,2,18,0,0,206,software
1816,1816,0,6,2,4,123,financial
1817,1817,11,12,8,27,113,software
1818,1818,1,14,6,6,158,software
1819,1819,3,11,6,24,199,financial
1820,1820,10,19,3,11,90,pharmaceutical
1821,1821,11,25,7,6,129,realestate
1822,1822,13,26,8,3,94,pharmaceutical
1823,1823,12,15,3,11,88,realestate
1824,1824,18,29,8,18,86,education
1825,1825,0,11,0,19,123,software
1826,1826,2,2,4,3,211,realestate
1827,1827,4,8,2,18,171,realestate
1828,1828,19,9,0,3,91,realestate
1829,1829,2,3,9,24,207,software
1830,1830,8,1,8,23,182,software
1831,1831,10,29,7,3,94,realestate
1832,1832,0,27,8,19,120,financial
1833,1833,7,27,8,15,140,financial
1834,1834,11,0,7,14,93,pharmaceutical
1835,1835,9,9,4,22,86,software
1836,1836,10,28,1,8,111,financial
1837,1837,17,0,7,11,200,software
1838,1838,3,3,4,14,212,pharmaceutical
1839,1839,16,18,6,9,156,pharmaceutical
1840,1840,17,19,8,20,202,realestate
1841,1841,10,15,5,7,125,education
1842,1842,19,22,6,20,88,pharmaceutical
1843,1843,16,3,1,1,161,education
1844,1844,17,18,7,18,187,education
1845,1845,18,8,3,26,100,financial
1846,1846,2,5,4,6,216,realestate
1847,1847,7,6,7,13,120,financial
1848,1848,11,14,5,17,111,pharmaceutical
1849,1849,19,21,3,4,105,financial
1850,1850,13,21,9,15,146,retail
1851,1851,18,28,6,9,64,education
1852,1852,0,10,3,0,121,realestate
1853,1853,7,8,3,15,165,education
1854,1854,19,6,6,11,113,education
1855,1855,3,0,0,24,173,retail
1856,1856,5,27,6,15,124,software
1857,1857,14,3,4,25,192,realestate
1858,1858,12,21,7,1,85,education
1859,1859,1,28,6,19,218,software
1860,1860,17,29,5,20,189,software
1861,1861,14,6,9,17,189,pharmaceutical
1862,1862,17,23,0,15,199,financial
1863,1863,13,12,5,9,97,software
1864,1864,1,26,4,22,221,retail
1865,1865,5,23,3,2,125,financial
1866,1866,2,0,1,29,216,retail
1867,1867,11,11,6,12,91,software
1868,1868,9,23,9,28,82,realestate
1869,1869,2,15,1,12,202,retail
1870,1870,9,16,6,21,62,realestate
1871,1871,17,10,6,17,189,education
1872,1872,1,18,2,2,186,education
1873,1873,4,14,2,11,170,retail
1874,1874,7,29,5,24,142,software
1875,1875,4,9,8,18,131,software
1876,1876,14,3,0,19,187,software
1877,1877,3,22,4,24,182,retail
1878,1878,13,28,0,21,105,realestate
1879,1879,9,1,4,17,70,software
1880,1880,12,16,8,25,108,software
1881,1881,0,8,3,18,119,software
1882,1882,9,3,0,26,69,financial
1883,1883,15,1,5,28,180,retail
1884,1884,17,1,7,25,203,software
1885,1885,13,24,3,25,112,retail
1886,1886,16,20,4,13,157,realestate
1887,1887,0,15,9,20,122,financial
1888,1888,7,23,6,15,121,pharmaceutical
1889,1889,7,7,6,17,160,software
1890,1890,7,6,4,29,167,financial
1891,1891,9,7,4,22,74,financial
1892,1892,16,6,4,9,162,pharmaceutical
1893,1893,17,2,9,13,198,pharmaceutical
1894,1894,5,23,6,11,125,financial
1895,1895,15,20,1,13,194,pharmaceutical
1896,1896,6,7,4,8,75,pharmaceutical
1897,1897,17,0,7,9,184,pharmaceutical
1898,1898,3,17,1,6,199,financial
1899,1899,12,5,4,22,87,financial
1900,1900,18,19,9,7,61,pharmaceutical
1901,1901,1,8,9,24,171,software
1902,1902,1,12,4,22,165,financial
1903,1903,3,25,9,0,170,realestate
1904,1904,2,23,8,14,207,software
1905,1905,16,17,8,14,157,retail
1906,1906,6,20,4,17,54,software
1907,1907,13,20,9,11,101,realestate
1908,1908,4,24,0,7,151,realestate
1909,1909,12,27,5,28,92,education
1910,1910,3,23,1,13,177,financial
1911,1911,13,8,2,11,117,realestate
1912,1912,18,13,6,18,85,financial
1913,1913,1,21,6,23,216,realestate
1914,1914,0,0,3,25,120,realestate
1915,1915,10,27,8,4,109,pharmaceutical
1916,1916,15,19,0,4,195,financial
1917,1917,8,8,9,13,116,education
1918,1918,19,19,5,6,90,retail
1919,1919,12,27,7,6,102,retail
1920,1920,12,20,6,29,79,retail
1921,1921,13,25,2,3,103,pharmaceutical
1922,1922,7,18,6,13,145,software
1923,1923,4,23,4,9,192,financial
1924,1924,16,10,2,29,161,retail
1925,1925,1,5,0,19,196,pharmaceutical
1926,1926,13,21,1,9,127,software
1927,1927,9,1,9,23,85,financial
1928,1928,11,14,5,13,108,education
1929,1929,13,19,5,16,119,retail
1930,1930,2,9,6,27,214,pharmaceutical
1931,1931,18,27,3,24,54,education
1932,1932,6,0,7,7,50,education
1933,1933,16,23,2,20,146,financial
1934,1934,4,27,6,11,195,retail
1935,1935,6,14,9,17,66,retail
1936,1936,8,25,5,11,111,software
1937,1937,17,4,6,17,189,realestate
1938,1938,12,18,9,28,93,pharmaceutical
1939,1939,11,13,8,21,101,financial
1940,1940,16,19,1,29,158,education
1941,1941,17,5,8,29,191,retail
1942,1942,6,15,9,11,48,pharmaceutical
1943,1943,6,13,6,29,45,retail
1944,1944,18,6,7,12,58,education
1945,1945,19,15,8,5,113,software
1946,1946,12,25,8,17,108,pharmaceutical
1947,1947,7,8,1,0,160,retail
1948,1948,2,4,3,12,202,financial
1949,1949,3,13,9,4,206,pharmaceutical
1950,1950,16,21,5,5,148,pharmaceutical
1951,1951,18,13,3,7,68,realestate
1952,1952,16,21,5,10,153,pharmaceutical
1953,1953,17,11,1,10,196,retail
1954,1954,7,10,2,27,163,financial
1955,1955,18,17,1,10,79,pharmaceutical
1956,1956,6,5,2,0,76,retail
1957,1957,4,21,6,5,154,retail
1958,1958,4,8,5,24,185,pharmaceutical
1959,1959,15,27,0,17,180,education
1960,1960,15,23,3,11,220,education
1961,1961,18,22,3,23,72,education
1962,1962,4,7,6,16,161,financial
1963,1963,11,10,4,18,136,retail
1964,1964,8,6,2,11,188,education
1965,1965,14,12,1,27,191,software
1966,1966,12,2,4,11,97,financial
1967,1967,12,23,3,16,110,pharmaceutical
1968,1968,6,10,7,17,38,pharmaceutical
1969,1969,5,17,8,20,109,software
1970,1970,9,6,1,10,49,education
1971,1971,18,18,9,26,92,pharmaceutical
1972,1972,19,21,2,7,109,financial
1973,1973,6,0,1,2,70,realestate
1974,1974,10,25,4,1,155,software
1975,1975,8,14,0,8,197,realestate
1976,1976,12,13,0,4,104,financial
1977,1977,6,4,6,27,86,retail
1978,1978,12,29,3,15,98,realestate
1979,1979,18,22,7,0,60,pharmaceutical
1980,1980,12,19,9,25,89,software
1981,1981,8,7,7,6,161,financial
1982,1982,12,17,4,10,103,pharmaceutical
1983,1983,14,4,4,28,187,education
1984,1984,2,10,1,8,208,software
1985,1985,14,24,7,13,195,financial
1986,1986,17,27,4,1,183,financial
1987,1987,15,14,5,11,205,education
1988,1988,4,27,3,28,155,software
1989,1989,5,8,7,16,92,software
1990,1990,3,19,2,10,187,financial
1991,1991,7,6,5,29,151,education
1992,1992,4,16,9,13,139,financial
1993,1993,3,20,4,16,200,realestate
1994,1994,15,27,9,24,216,software
1995,1995,0,0,1,22,122,financial
1996,1996,8,20,0,7,154,financial
1997,1997,15,27,6,17,204,education
1998,1998,1,5,9,16,179,education
1999,1999,12,14,2,6,93,education
