Order-Id,Item-id,Product-Id,Quantity,Sales-Id,Customer-Id,Sales-Price-Per-Prod,Market-Segment
0,0,15,3,7,5,178,software
1,1,1,1,7,15,181,software
2,2,14,17,9,3,185,software
3,3,9,9,1,10,93,financial
4,4,10,21,4,23,124,pharmaceutical
5,5,14,1,2,25,192,retail
6,6,7,10,5,11,130,financial
7,7,6,18,7,15,71,financial
8,8,7,24,9,5,132,software
9,9,6,0,4,12,56,realestate
10,10,15,6,6,18,179,retail
11,11,7,5,1,17,140,software
12,12,18,21,6,0,84,realestate
13,13,8,17,6,27,121,realestate
14,14,9,3,4,16,44,retail
15,15,1,21,9,2,182,retail
16,16,9,16,0,22,59,realestate
17,17,17,14,3,28,191,retail
18,18,7,12,5,14,146,realestate
19,19,1,5,1,22,199,realestate
20,20,3,27,6,13,207,education
21,21,13,14,8,7,116,pharmaceutical
22,22,15,7,0,3,194,education
23,23,13,16,4,8,93,pharmaceutical
24,24,11,2,2,22,123,financial
25,25,16,24,8,3,146,pharmaceutical
26,26,9,26,5,29,74,education
27,27,9,8,3,13,90,retail
28,28,16,4,1,7,149,financial
29,29,8,5,2,23,133,realestate
30,30,19,28,7,10,88,education
31,31,13,5,1,27,86,pharmaceutical
32,32,9,9,6,16,55,education
33,33,3,7,0,8,208,pharmaceutical
34,34,11,5,3,19,93,education
35,35,12,26,8,7,84,software
36,36,12,7,4,15,80,education
37,37,17,20,9,25,183,software
38,38,2,29,9,12,210,software
39,39,7,29,8,13,160,software
40,40,16,26,7,1,147,education
41,41,3,25,0,13,180,software
42,42,1,21,4,12,166,pharmaceutical
43,43,9,4,5,9,82,retail
44,44,11,17,2,6,104,financial
45,45,0,6,9,20,121,retail
46,46,9,1,4,27,100,retail
47,47,14,24,4,21,178,retail
48,48,15,19,2,24,196,software
49,49,11,6,7,5,112,realestate
50,50,13,24,5,4,143,education
51,51,16,5,4,6,158,realestate
52,52,8,11,4,13,128,software
53,53,13,8,8,29,107,software
54,54,12,15,1,26,78,education
55,55,6,29,6,12,48,retail
56,56,15,6,6,11,194,realestate
57,57,5,24,8,16,124,financial
58,58,6,17,3,3,42,education
59,59,11,12,0,16,95,financial
60,60,6,10,0,9,75,pharmaceutical
61,61,9,27,0,12,76,financial
62,62,3,21,2,1,199,realestate
63,63,19,24,4,15,82,pharmaceutical
64,64,15,18,3,11,199,retail
65,65,16,23,1,24,150,financial
66,66,15,1,5,21,193,software
67,67,12,24,5,9,110,software
68,68,5,22,4,10,124,software
69,69,3,5,4,15,214,retail
70,70,5,28,0,12,92,education
71,71,9,29,6,18,87,realestate
72,72,18,24,7,14,61,financial
73,73,13,14,0,29,124,realestate
74,74,14,7,4,24,193,financial
75,75,15,23,8,20,207,education
76,76,15,9,6,10,220,education
77,77,8,3,8,9,132,realestate
78,78,6,6,4,5,59,education
79,79,14,24,1,19,178,financial
80,80,14,0,4,2,183,retail
81,81,12,26,1,5,88,financial
82,82,11,3,5,19,109,financial
83,83,4,29,2,26,179,financial
84,84,9,28,2,4,52,education
85,85,14,7,3,27,196,realestate
86,86,7,28,2,5,158,retail
87,87,5,3,4,8,96,education
88,88,9,5,1,21,68,education
89,89,16,28,3,0,146,pharmaceutical
90,90,16,17,0,11,155,pharmaceutical
91,91,19,5,3,23,84,realestate
92,92,5,18,2,9,124,financial
93,93,12,20,9,13,99,retail
94,94,19,19,6,27,88,software
95,95,16,18,2,16,147,software
96,96,17,2,0,6,192,pharmaceutical
97,97,16,8,4,7,149,realestate
98,98,12,28,7,24,105,realestate
99,99,11,25,4,3,117,financial
100,100,19,14,4,14,113,retail
101,101,4,26,4,14,131,education
102,102,13,2,3,27,140,education
103,103,15,25,4,13,199,realestate
104,104,9,0,2,28,103,software
105,105,14,8,6,9,182,education
106,106,14,7,3,4,179,software
107,107,7,24,9,6,162,retail
108,108,14,10,7,20,185,retail
109,109,11,5,1,13,101,realestate
110,110,18,26,3,21,62,education
111,111,19,11,9,4,75,education
112,112,7,13,7,28,119,software
113,113,3,1,1,20,194,pharmaceutical
114,114,1,11,3,4,204,software
115,115,19,16,8,14,105,financial
116,116,18,5,0,16,75,education
117,117,17,29,8,19,187,pharmaceutical
118,118,0,17,8,22,121,pharmaceutical
119,119,11,9,5,11,129,software
120,120,10,18,3,23,121,financial
121,121,8,26,4,3,177,education
122,122,3,9,3,2,210,retail
123,123,7,22,4,10,167,software
124,124,18,8,2,17,89,software
125,125,2,23,4,15,204,retail
126,126,2,16,9,23,219,software
127,127,13,19,2,6,94,software
128,128,11,12,4,27,117,education
129,129,2,27,1,24,211,realestate
130,130,15,25,5,21,189,retail
131,131,1,25,7,29,179,retail
132,132,0,18,9,17,120,financial
133,133,5,15,7,20,126,financial
134,134,9,27,8,9,75,software
135,135,5,18,5,8,98,software
136,136,13,12,2,20,96,retail
137,137,18,26,4,19,73,software
138,138,9,14,4,13,43,financial
139,139,3,9,0,13,171,education
140,140,5,7,8,17,97,retail
141,141,7,6,1,25,125,realestate
142,142,14,23,5,11,182,software
143,143,1,28,8,15,200,retail
144,144,6,24,8,1,61,education
145,145,14,20,9,13,181,pharmaceutical
146,146,18,3,1,29,74,financial
147,147,15,17,4,22,200,retail
148,148,4,15,9,16,156,software
149,149,8,22,7,6,135,software
150,150,16,23,5,10,153,financial
151,151,19,5,5,12,71,software
152,152,9,11,3,27,86,pharmaceutical
153,153,18,29,1,21,75,retail
154,154,11,9,3,11,98,financial
155,155,1,10,1,17,218,pharmaceutical
156,156,16,17,7,17,152,education
157,157,17,16,5,28,190,retail
158,158,13,28,5,21,87,realestate
159,159,10,18,1,22,127,education
160,160,12,28,2,24,105,pharmaceutical
161,161,15,29,1,5,201,financial
162,162,17,8,3,2,192,education
163,163,12,28,9,15,106,retail
164,164,16,21,0,11,157,pharmaceutical
165,165,8,2,9,29,136,retail
166,166,2,22,9,3,210,realestate
167,167,8,8,7,8,159,retail
168,168,13,20,6,11,95,realestate
169,169,19,17,7,29,83,pharmaceutical
170,170,3,2,1,22,213,education
171,171,1,23,3,23,167,pharmaceutical
172,172,19,28,2,13,113,retail
173,173,15,18,3,9,182,realestate
174,174,16,3,2,13,153,financial
175,175,8,18,3,21,192,retail
176,176,19,14,3,28,71,financial
177,177,2,3,8,2,209,financial
178,178,16,28,8,25,157,realestate
179,179,13,12,2,14,125,software
180,180,14,24,3,14,188,pharmaceutical
181,181,1,3,9,23,216,retail
182,182,19,16,3,5,78,education
183,183,9,9,9,9,48,pharmaceutical
184,184,8,14,9,27,171,pharmaceutical
185,185,10,5,0,23,99,financial
186,186,4,22,0,10,175,software
187,187,11,5,3,16,129,realestate
188,188,19,4,1,7,73,financial
189,189,7,24,9,8,129,financial
190,190,11,28,6,9,115,education
191,191,1,10,0,10,180,pharmaceutical
192,192,2,24,0,20,201,retail
193,193,7,27,0,20,143,software
194,194,0,9,9,7,119,pharmaceutical
195,195,7,12,3,7,124,financial
196,196,17,4,8,27,188,retail
197,197,7,13,7,28,124,pharmaceutical
198,198,3,17,3,16,208,realestate
199,199,11,11,7,0,112,realestate
200,200,11,20,8,6,109,software
201,201,7,20,1,23,135,financial
202,202,4,28,6,2,148,education
203,203,11,20,3,18,107,financial
204,204,13,26,2,14,144,realestate
205,205,8,22,1,0,181,education
206,206,0,3,3,28,120,financial
207,207,1,7,5,9,178,pharmaceutical
208,208,10,2,4,24,153,education
209,209,15,23,0,15,190,retail
210,210,6,19,4,26,63,education
211,211,18,3,2,5,77,retail
212,212,4,1,2,10,147,retail
213,213,15,19,2,23,184,pharmaceutical
214,214,8,5,0,11,197,pharmaceutical
215,215,10,20,0,17,90,education
216,216,9,4,0,26,47,financial
217,217,15,19,5,11,209,financial
218,218,18,15,6,16,70,education
219,219,19,19,8,11,85,education
220,220,3,17,7,1,187,retail
221,221,11,8,1,5,95,pharmaceutical
222,222,5,16,9,22,118,realestate
223,223,8,15,9,13,154,realestate
224,224,7,28,6,9,144,education
225,225,2,10,8,24,217,retail
226,226,2,26,6,1,208,realestate
227,227,6,12,3,14,77,pharmaceutical
228,228,17,6,8,5,189,retail
229,229,9,11,1,24,101,education
230,230,5,25,7,8,92,education
231,231,15,16,6,29,200,pharmaceutical
232,232,17,25,0,8,190,realestate
233,233,19,8,4,10,113,realestate
234,234,0,3,7,7,122,software
235,235,6,22,0,26,58,financial
236,236,17,14,7,27,193,pharmaceutical
237,237,0,26,2,29,120,pharmaceutical
238,238,13,27,0,10,88,pharmaceutical
239,239,8,19,0,14,126,pharmaceutical
240,240,2,16,3,20,215,pharmaceutical
241,241,0,3,3,0,121,software
242,242,12,17,1,10,90,software
243,243,16,21,3,29,161,retail
244,244,19,3,0,8,115,pharmaceutical
245,245,6,16,3,2,59,education
246,246,0,10,2,9,121,education
247,247,18,22,0,20,55,realestate
248,248,5,27,0,16,132,realestate
249,249,14,1,2,17,193,pharmaceutical
250,250,13,2,0,21,129,realestate
251,251,10,12,8,28,158,financial
252,252,17,9,7,29,199,pharmaceutical
253,253,5,8,0,13,127,pharmaceutical
254,254,2,17,3,22,219,financial
255,255,11,14,0,18,102,pharmaceutical
256,256,0,7,0,5,120,realestate
257,257,11,5,3,7,126,financial
258,258,13,22,4,27,136,pharmaceutical
259,259,8,6,7,28,152,realestate
260,260,7,3,7,23,140,retail
261,261,14,14,0,27,191,retail
262,262,15,28,9,12,195,software
263,263,15,4,0,24,208,education
264,264,4,25,8,4,192,education
265,265,18,10,5,19,72,pharmaceutical
266,266,12,8,9,8,106,pharmaceutical
267,267,6,24,8,29,77,software
268,268,13,29,2,20,127,education
269,269,13,27,9,6,133,pharmaceutical
270,270,16,29,1,11,157,retail
271,271,11,3,3,21,140,financial
272,272,5,20,2,21,107,realestate
273,273,10,20,9,1,98,pharmaceutical
274,274,14,24,3,1,189,retail
275,275,0,22,3,27,120,software
276,276,2,0,8,12,212,retail
277,277,2,21,1,20,201,software
278,278,18,5,9,11,80,software
279,279,3,22,5,23,172,realestate
280,280,0,22,7,4,120,software
281,281,15,27,9,8,186,education
282,282,2,4,5,6,214,realestate
283,283,16,9,3,17,147,software
284,284,16,15,1,19,148,pharmaceutical
285,285,17,17,3,26,188,software
286,286,11,28,6,13,113,software
287,287,13,14,4,23,99,retail
288,288,12,5,0,22,89,retail
289,289,14,7,7,18,195,pharmaceutical
290,290,19,26,8,28,117,financial
291,291,3,16,9,14,186,financial
292,292,8,25,4,26,202,pharmaceutical
293,293,19,3,4,4,89,financial
294,294,2,16,1,17,215,financial
295,295,11,12,4,24,95,realestate
296,296,11,29,6,1,125,financial
297,297,17,11,3,18,189,financial
298,298,2,16,3,16,199,software
299,299,3,22,1,13,201,realestate
300,300,12,23,2,6,93,realestate
301,301,1,20,5,28,221,software
302,302,16,27,7,9,148,software
303,303,17,24,2,1,187,realestate
304,304,9,22,9,23,89,retail
305,305,4,2,4,20,153,financial
306,306,12,3,1,20,107,financial
307,307,13,12,4,17,99,realestate
308,308,9,13,0,27,86,education
309,309,8,1,0,18,180,education
310,310,19,25,2,1,107,pharmaceutical
311,311,4,19,4,26,169,education
312,312,5,15,9,11,133,financial
313,313,9,2,3,28,61,realestate
314,314,19,22,2,6,105,realestate
315,315,1,27,5,28,208,realestate
316,316,16,17,8,0,161,pharmaceutical
317,317,7,22,4,9,163,software
318,318,12,24,4,26,106,financial
319,319,18,25,2,13,78,retail
320,320,4,2,9,12,158,education
321,321,9,17,2,28,101,pharmaceutical
322,322,6,6,9,29,49,financial
323,323,17,27,7,8,199,retail
324,324,19,29,5,6,102,financial
325,325,10,28,8,3,102,realestate
326,326,6,14,6,28,39,pharmaceutical
327,327,12,22,5,4,81,software
328,328,16,29,4,29,159,education
329,329,11,19,4,14,104,retail
330,330,11,26,6,17,133,education
331,331,17,12,0,15,205,pharmaceutical
332,332,11,4,6,15,116,pharmaceutical
333,333,6,13,7,23,47,software
334,334,2,11,1,17,215,retail
335,335,7,18,6,23,152,financial
336,336,18,4,2,13,92,realestate
337,337,8,3,8,25,207,financial
338,338,7,11,8,26,148,education
339,339,9,7,7,2,58,realestate
340,340,4,7,4,11,150,pharmaceutical
341,341,6,4,9,19,75,retail
342,342,10,14,1,18,120,pharmaceutical
343,343,14,9,7,8,195,pharmaceutical
344,344,13,29,4,21,93,retail
345,345,17,4,4,17,200,retail
346,346,5,21,3,26,113,financial
347,347,17,4,9,13,201,pharmaceutical
348,348,18,2,6,12,59,financial
349,349,11,17,0,18,103,retail
350,350,12,0,2,27,92,education
351,351,3,23,5,22,217,financial
352,352,1,3,4,2,160,pharmaceutical
353,353,6,11,8,27,73,pharmaceutical
354,354,12,26,5,18,108,realestate
355,355,3,19,2,23,171,pharmaceutical
356,356,16,0,7,23,157,pharmaceutical
357,357,13,28,9,20,96,education
358,358,18,18,8,21,57,software
359,359,14,12,0,7,188,financial
360,360,17,13,8,5,183,realestate
361,361,10,9,1,3,128,software
362,362,11,26,1,4,125,software
363,363,8,10,8,29,186,education
364,364,4,28,1,7,139,software
365,365,11,10,8,9,109,retail
366,366,13,2,4,6,123,financial
367,367,19,14,6,2,108,realestate
368,368,6,9,8,4,42,financial
369,369,7,0,4,18,152,software
370,370,17,23,7,8,203,retail
371,371,15,17,4,6,185,financial
372,372,8,22,9,14,193,retail
373,373,10,1,3,13,95,financial
374,374,16,23,8,14,154,retail
375,375,7,13,2,21,157,pharmaceutical
376,376,1,3,0,9,194,education
377,377,15,7,7,21,209,pharmaceutical
378,378,4,0,2,15,177,retail
379,379,16,16,2,25,150,financial
380,380,1,23,7,23,186,financial
381,381,6,20,9,20,79,realestate
382,382,19,22,2,14,89,pharmaceutical
383,383,19,1,1,22,112,education
384,384,9,12,1,26,43,education
385,385,9,16,0,25,44,financial
386,386,0,17,1,24,121,software
387,387,1,10,6,3,192,pharmaceutical
388,388,19,23,2,29,83,financial
389,389,15,21,1,11,188,financial
390,390,14,0,3,0,183,software
391,391,7,13,0,28,121,software
392,392,3,26,2,20,168,software
393,393,12,19,4,19,102,realestate
394,394,18,21,7,28,95,pharmaceutical
395,395,4,16,6,2,179,realestate
396,396,13,24,7,24,88,software
397,397,8,3,7,20,145,software
398,398,10,1,7,11,140,financial
399,399,12,15,7,10,105,retail
400,400,15,12,4,27,181,pharmaceutical
401,401,12,26,4,11,89,education
402,402,15,16,0,10,212,financial
403,403,3,28,5,13,170,financial
404,404,16,23,8,20,155,retail
405,405,3,8,9,18,176,retail
406,406,12,9,9,5,99,realestate
407,407,11,17,5,7,97,pharmaceutical
408,408,6,22,1,11,61,retail
409,409,6,10,7,8,51,retail
410,410,16,14,4,17,161,realestate
411,411,1,20,2,4,155,realestate
412,412,17,7,0,12,183,realestate
413,413,11,29,1,10,133,education
414,414,6,21,8,26,80,software
415,415,19,18,5,2,93,realestate
416,416,8,12,7,13,190,realestate
417,417,0,0,4,26,120,retail
418,418,9,1,6,0,48,software
419,419,19,14,5,8,85,education
420,420,17,27,3,4,194,pharmaceutical
421,421,7,20,1,22,163,realestate
422,422,15,28,0,10,210,financial
423,423,9,8,1,23,89,pharmaceutical
424,424,14,5,8,26,188,pharmaceutical
425,425,17,8,9,19,197,retail
426,426,1,18,9,1,190,retail
427,427,1,26,2,6,187,realestate
428,428,2,20,7,13,205,software
429,429,6,18,6,22,58,education
430,430,4,12,6,18,133,retail
431,431,3,27,2,28,213,education
432,432,18,3,2,19,83,retail
433,433,5,26,4,2,129,education
434,434,1,18,9,28,235,education
435,435,4,12,4,3,134,software
436,436,4,23,6,5,183,financial
437,437,13,11,4,17,133,realestate
438,438,7,26,3,12,125,software
439,439,4,10,2,15,184,realestate
440,440,15,8,5,27,185,realestate
441,441,11,20,1,14,102,software
442,442,6,14,5,9,52,financial
443,443,14,19,9,29,183,software
444,444,10,2,6,27,127,retail
445,445,14,4,0,8,198,realestate
446,446,9,11,9,9,80,pharmaceutical
447,447,10,4,0,25,88,realestate
448,448,16,1,3,18,151,retail
449,449,13,22,0,3,86,education
450,450,1,0,2,18,170,pharmaceutical
451,451,5,3,8,0,139,pharmaceutical
452,452,16,28,3,8,149,software
453,453,16,14,6,21,154,pharmaceutical
454,454,5,12,0,11,104,financial
455,455,16,25,9,29,160,financial
456,456,13,15,0,20,111,retail
457,457,11,26,9,23,106,pharmaceutical
458,458,10,10,0,0,114,pharmaceutical
459,459,2,28,9,8,215,software
460,460,13,8,9,4,143,education
461,461,3,1,6,27,215,education
462,462,4,10,5,5,143,retail
463,463,8,6,3,28,124,software
464,464,3,26,5,26,201,retail
465,465,11,25,6,3,137,financial
466,466,7,10,7,15,141,pharmaceutical
467,467,19,27,8,26,72,realestate
468,468,9,8,4,29,95,financial
469,469,8,26,9,25,110,pharmaceutical
470,470,0,16,9,13,120,education
471,471,9,8,5,26,65,education
472,472,11,11,4,7,132,software
473,473,9,5,1,12,95,realestate
474,474,16,10,6,25,154,software
475,475,6,7,1,7,68,pharmaceutical
476,476,17,5,6,16,201,education
477,477,3,11,2,23,210,software
478,478,15,10,8,5,180,retail
479,479,4,20,4,2,181,retail
480,480,3,5,1,8,179,retail
481,481,12,26,3,26,109,realestate
482,482,19,14,7,4,114,education
483,483,3,13,5,5,174,retail
484,484,15,11,2,3,205,software
485,485,19,29,5,10,114,financial
486,486,15,26,3,5,183,software
487,487,11,16,7,28,116,education
488,488,2,29,6,27,205,education
489,489,12,14,8,28,96,retail
490,490,18,12,0,22,70,realestate
491,491,1,23,4,20,193,realestate
492,492,4,29,4,8,163,retail
493,493,13,2,6,22,92,retail
494,494,17,26,4,16,193,financial
495,495,13,5,5,11,134,pharmaceutical
496,496,14,15,1,21,187,pharmaceutical
497,497,5,21,2,17,118,software
498,498,6,3,3,27,67,financial
499,499,5,5,2,4,107,software
500,500,9,9,7,0,80,software
501,501,12,3,6,29,93,realestate
502,502,4,14,5,22,179,financial
503,503,19,22,6,13,74,software
504,504,13,2,5,15,103,software
505,505,14,17,4,14,188,realestate
506,506,12,15,2,18,81,software
507,507,12,26,8,10,98,financial
508,508,9,7,5,29,96,pharmaceutical
509,509,18,20,2,12,64,financial
510,510,1,0,5,13,225,realestate
511,511,2,6,4,10,205,retail
512,512,18,24,0,18,99,retail
513,513,11,27,0,12,129,education
514,514,18,8,2,27,72,retail
515,515,17,25,0,23,188,pharmaceutical
516,516,3,5,9,10,205,software
517,517,9,7,9,7,68,retail
518,518,18,27,5,26,69,education
519,519,2,22,6,17,200,retail
520,520,7,26,4,26,145,realestate
521,521,16,18,5,15,160,pharmaceutical
522,522,6,9,0,12,47,retail
523,523,0,20,1,18,122,software
524,524,14,6,6,29,178,financial
525,525,19,5,1,24,117,retail
526,526,8,12,5,0,153,realestate
527,527,8,27,2,21,128,software
528,528,14,24,1,7,180,financial
529,529,0,26,9,28,122,software
530,530,4,2,2,22,150,pharmaceutical
531,531,4,14,4,3,194,education
532,532,2,5,0,7,214,realestate
533,533,2,10,4,1,218,realestate
534,534,3,28,6,4,213,pharmaceutical
535,535,8,23,9,11,141,realestate
536,536,18,9,1,20,74,software
537,537,8,23,0,24,116,pharmaceutical
538,538,16,18,3,3,148,software
539,539,9,22,1,3,61,realestate
540,540,10,16,2,6,128,financial
541,541,12,19,2,19,86,financial
542,542,10,4,2,15,126,software
543,543,7,29,5,6,132,realestate
544,544,13,18,8,18,146,pharmaceutical
545,545,11,8,1,10,95,financial
546,546,4,2,2,23,174,software
547,547,19,27,6,28,107,software
548,548,2,0,8,9,202,education
549,549,19,2,9,16,101,financial
550,550,9,17,5,12,92,retail
551,551,2,16,5,20,216,pharmaceutical
552,552,5,25,0,8,129,software
553,553,16,2,1,4,157,pharmaceutical
554,554,16,15,9,4,148,pharmaceutical
555,555,0,6,6,9,119,software
556,556,0,6,4,5,121,retail
557,557,1,14,6,9,223,software
558,558,17,13,7,2,185,education
559,559,17,4,3,13,189,software
560,560,0,20,3,9,122,realestate
561,561,8,9,3,28,167,software
562,562,18,6,6,0,97,education
563,563,17,18,8,17,189,retail
564,564,4,25,0,24,134,education
565,565,9,17,8,15,89,education
566,566,16,2,6,25,162,retail
567,567,8,13,6,7,137,financial
568,568,10,6,0,28,145,pharmaceutical
569,569,7,19,9,11,124,financial
570,570,5,19,8,16,121,pharmaceutical
571,571,2,6,8,21,204,retail
572,572,13,13,4,9,131,education
573,573,19,28,9,20,82,software
574,574,11,20,4,11,94,realestate
575,575,4,4,4,1,163,retail
576,576,4,24,5,7,183,pharmaceutical
577,577,11,0,1,9,101,education
578,578,16,29,1,20,156,realestate
579,579,4,13,7,16,177,software
580,580,3,5,7,22,190,retail
581,581,12,12,8,6,98,pharmaceutical
582,582,17,19,3,18,188,education
583,583,2,5,3,20,209,pharmaceutical
584,584,3,7,5,22,165,pharmaceutical
585,585,4,3,7,29,162,software
586,586,6,1,5,18,67,software
587,587,10,22,1,13,152,realestate
588,588,8,15,9,5,128,financial
589,589,3,16,3,1,213,software
590,590,19,0,2,27,77,pharmaceutical
591,591,6,15,1,9,60,financial
592,592,8,15,8,18,133,pharmaceutical
593,593,17,29,4,26,192,realestate
594,594,0,18,1,9,119,retail
595,595,12,16,0,2,99,realestate
596,596,13,25,4,15,146,financial
597,597,8,22,5,10,204,realestate
598,598,7,8,7,27,143,realestate
599,599,17,19,3,10,205,retail
600,600,4,8,1,10,157,realestate
601,601,12,27,9,13,86,financial
602,602,4,15,3,3,174,realestate
603,603,13,19,1,14,95,education
604,604,9,3,7,8,95,software
605,605,13,26,0,24,118,education
606,606,19,9,8,0,118,software
607,607,4,5,5,14,167,realestate
608,608,6,9,2,13,56,education
609,609,9,16,4,2,87,education
610,610,6,20,1,8,82,retail
611,611,2,26,1,25,206,realestate
612,612,10,11,9,3,115,financial
613,613,3,1,4,19,204,retail
614,614,5,2,4,1,121,pharmaceutical
615,615,2,5,2,10,205,retail
616,616,15,15,5,3,190,pharmaceutical
617,617,8,29,8,20,156,software
618,618,14,6,8,4,178,education
619,619,0,17,8,13,120,financial
620,620,12,18,0,23,87,retail
621,621,13,14,3,25,95,retail
622,622,10,13,6,11,126,financial
623,623,6,14,0,22,55,software
624,624,18,7,2,9,51,retail
625,625,14,27,2,23,184,pharmaceutical
626,626,3,20,4,23,191,software
627,627,5,4,8,12,108,retail
628,628,19,28,2,29,99,retail
629,629,13,3,2,3,137,retail
630,630,17,10,2,29,186,retail
631,631,2,1,4,0,208,financial
632,632,10,21,4,21,98,education
633,633,19,6,3,20,78,realestate
634,634,11,2,5,14,137,education
635,635,11,9,1,16,93,education
636,636,10,10,4,5,147,retail
637,637,17,10,1,29,195,retail
638,638,11,8,4,18,109,education
639,639,8,13,1,28,196,financial
640,640,4,9,7,20,142,software
641,641,6,13,9,28,81,financial
642,642,14,26,9,11,194,education
643,643,3,2,1,15,182,realestate
644,644,8,4,7,24,200,retail
645,645,6,23,4,2,76,retail
646,646,14,17,6,5,189,retail
647,647,11,28,0,21,96,pharmaceutical
648,648,15,13,1,3,196,realestate
649,649,19,2,6,0,92,education
650,650,2,6,9,15,215,financial
651,651,19,29,6,13,80,realestate
652,652,15,24,3,24,199,software
653,653,4,22,1,20,141,retail
654,654,7,10,6,2,167,software
655,655,10,16,5,22,132,realestate
656,656,2,25,5,8,203,realestate
657,657,7,27,7,13,150,education
658,658,5,23,2,6,96,financial
659,659,0,22,5,15,122,financial
660,660,17,9,1,26,195,financial
661,661,19,16,9,29,113,retail
662,662,18,8,6,21,100,software
663,663,12,5,1,11,79,education
664,664,14,11,6,6,199,education
665,665,12,10,7,24,103,software
666,666,4,15,7,17,156,realestate
667,667,0,0,0,23,121,pharmaceutical
668,668,12,1,1,11,84,software
669,669,11,22,1,8,107,realestate
670,670,6,16,8,23,58,pharmaceutical
671,671,18,0,8,17,53,financial
672,672,2,22,9,4,219,realestate
673,673,18,2,4,9,79,realestate
674,674,8,27,0,29,193,retail
675,675,16,15,7,26,159,pharmaceutical
676,676,7,21,0,20,144,pharmaceutical
677,677,13,24,9,18,122,pharmaceutical
678,678,19,10,5,4,90,financial
679,679,1,5,0,27,188,software
680,680,16,3,4,25,154,financial
681,681,2,23,6,12,205,education
682,682,0,9,1,3,121,realestate
683,683,19,17,4,25,84,pharmaceutical
684,684,6,5,6,16,53,education
685,685,14,9,6,23,193,retail
686,686,10,15,9,8,136,realestate
687,687,4,12,7,0,191,retail
688,688,3,7,7,2,179,software
689,689,6,4,0,6,60,education
690,690,12,0,9,28,97,software
691,691,1,29,7,23,208,pharmaceutical
692,692,0,12,9,21,123,software
693,693,3,21,1,28,201,retail
694,694,1,17,1,3,207,retail
695,695,9,4,5,18,62,pharmaceutical
696,696,5,26,7,0,108,retail
697,697,18,20,4,13,97,financial
698,698,10,14,9,7,111,realestate
699,699,12,7,7,7,100,retail
700,700,12,5,5,25,109,retail
701,701,19,27,7,8,110,retail
702,702,17,0,9,7,203,software
703,703,9,28,9,4,90,retail
704,704,4,8,6,25,191,financial
705,705,12,14,4,23,109,retail
706,706,0,20,6,4,122,realestate
707,707,6,10,3,8,46,education
708,708,6,9,9,11,62,software
709,709,6,8,5,25,41,realestate
710,710,9,0,2,10,85,financial
711,711,18,17,8,28,84,pharmaceutical
712,712,10,9,0,16,99,education
713,713,8,13,6,12,168,software
714,714,2,20,3,4,209,pharmaceutical
715,715,11,27,4,17,92,software
716,716,12,18,8,11,84,realestate
717,717,17,19,9,20,203,software
718,718,10,10,9,29,98,pharmaceutical
719,719,8,22,1,7,131,software
720,720,14,9,2,4,184,pharmaceutical
721,721,1,22,7,4,166,retail
722,722,14,0,7,21,199,software
723,723,7,16,2,12,141,software
724,724,11,0,9,22,122,software
725,725,19,26,9,2,107,software
726,726,14,27,1,17,191,software
727,727,1,29,1,27,176,software
728,728,6,0,4,19,68,financial
729,729,14,12,4,13,181,pharmaceutical
730,730,8,1,9,7,173,pharmaceutical
731,731,18,18,4,24,66,education
732,732,1,4,4,4,171,financial
733,733,5,9,4,29,132,education
734,734,3,4,7,11,213,financial
735,735,2,8,7,25,205,education
736,736,1,25,6,10,163,realestate
737,737,5,4,8,15,108,pharmaceutical
738,738,6,23,2,10,85,realestate
739,739,15,14,4,29,207,education
740,740,6,16,9,13,46,education
741,741,2,12,7,11,218,financial
742,742,15,21,8,5,199,financial
743,743,17,22,4,19,189,retail
744,744,13,7,2,7,103,software
745,745,7,16,8,22,131,realestate
746,746,7,1,1,11,120,pharmaceutical
747,747,13,17,8,8,86,software
748,748,1,4,6,5,202,retail
749,749,4,11,4,19,143,software
750,750,12,12,0,12,82,retail
751,751,13,0,3,0,107,realestate
752,752,7,18,0,6,138,realestate
753,753,9,17,7,10,72,software
754,754,13,22,1,21,144,software
755,755,8,11,1,28,198,software
756,756,18,24,3,5,89,realestate
757,757,13,7,8,9,114,financial
758,758,19,16,3,24,112,education
759,759,10,21,9,3,120,pharmaceutical
760,760,11,28,3,28,131,retail
761,761,19,8,5,28,101,software
762,762,12,27,2,14,94,financial
763,763,16,27,3,0,153,pharmaceutical
764,764,15,21,9,6,199,software
765,765,6,8,5,16,62,realestate
766,766,9,5,6,15,57,financial
767,767,7,5,0,3,151,software
768,768,7,22,5,5,129,pharmaceutical
769,769,8,5,6,26,136,retail
770,770,6,4,9,11,48,pharmaceutical
771,771,0,13,8,6,122,realestate
772,772,9,21,9,16,94,financial
773,773,14,26,5,7,186,software
774,774,6,29,3,0,85,financial
775,775,19,12,6,9,88,financial
776,776,16,19,9,13,153,education
777,777,8,11,6,28,171,realestate
778,778,2,21,5,13,202,realestate
779,779,8,20,8,14,160,pharmaceutical
780,780,9,8,6,5,77,education
781,781,11,13,2,13,134,retail
782,782,19,29,5,22,92,realestate
783,783,7,11,8,22,167,software
784,784,2,2,7,5,214,pharmaceutical
785,785,1,4,9,27,191,software
786,786,19,14,8,12,75,software
787,787,11,24,8,22,107,pharmaceutical
788,788,9,27,6,10,97,financial
789,789,11,23,9,0,108,software
790,790,9,12,1,6,97,education
791,791,7,18,6,0,154,pharmaceutical
792,792,6,5,0,12,69,software
793,793,10,29,4,27,109,realestate
794,794,12,12,7,22,103,software
795,795,17,29,5,4,196,software
796,796,10,29,6,12,123,pharmaceutical
797,797,8,23,9,19,122,education
798,798,3,11,3,17,172,education
799,799,12,7,0,18,104,software
800,800,12,7,9,11,97,retail
801,801,19,10,0,8,98,financial
802,802,8,11,7,3,174,pharmaceutical
803,803,17,11,3,1,192,pharmaceutical
804,804,18,25,6,5,65,retail
805,805,5,17,9,22,109,software
806,806,10,14,1,4,134,pharmaceutical
807,807,14,15,3,9,198,realestate
808,808,16,19,5,18,156,software
809,809,10,20,9,19,145,software
810,810,9,29,0,17,89,software
811,811,15,12,2,18,198,software
812,812,5,28,4,23,129,financial
813,813,2,12,2,23,207,education
814,814,4,23,8,26,150,education
815,815,3,16,5,2,202,education
816,816,6,29,9,5,44,financial
817,817,18,3,2,23,94,pharmaceutical
818,818,10,27,2,12,93,education
819,819,11,23,1,10,98,pharmaceutical
820,820,17,21,8,16,185,software
821,821,15,0,5,8,196,software
822,822,3,27,9,13,190,software
823,823,9,2,2,17,49,retail
824,824,16,1,9,10,152,realestate
825,825,3,5,5,15,205,pharmaceutical
826,826,2,28,0,2,211,retail
827,827,0,11,1,29,121,financial
828,828,7,21,3,20,156,software
829,829,1,2,7,1,215,retail
830,830,0,28,9,0,123,pharmaceutical
831,831,12,7,9,23,110,education
832,832,13,15,4,1,108,realestate
833,833,16,1,9,5,158,financial
834,834,12,2,7,22,82,software
835,835,2,7,0,29,204,pharmaceutical
836,836,9,22,1,8,84,pharmaceutical
837,837,3,17,8,12,174,retail
838,838,6,23,5,7,82,realestate
839,839,17,21,0,16,189,software
840,840,13,14,8,21,122,retail
841,841,7,6,1,4,132,realestate
842,842,7,9,5,8,157,pharmaceutical
843,843,8,12,3,12,127,pharmaceutical
844,844,8,3,3,18,130,pharmaceutical
845,845,2,4,5,3,216,pharmaceutical
846,846,10,18,9,4,91,financial
847,847,4,13,2,17,168,pharmaceutical
848,848,17,2,0,9,196,education
849,849,16,4,8,20,160,pharmaceutical
850,850,0,20,4,25,122,software
851,851,1,23,9,15,172,realestate
852,852,13,14,7,1,135,financial
853,853,12,25,0,8,83,software
854,854,6,10,4,10,79,education
855,855,6,12,4,2,74,education
856,856,1,22,8,5,219,realestate
857,857,14,18,3,19,194,education
858,858,13,22,4,17,91,software
859,859,3,7,4,13,166,software
860,860,17,21,5,14,191,pharmaceutical
861,861,4,8,3,7,170,financial
862,862,0,23,8,12,123,realestate
863,863,7,12,5,8,151,software
864,864,17,6,1,19,203,software
865,865,11,7,2,1,131,software
866,866,14,26,7,29,183,software
867,867,2,22,1,13,210,education
868,868,6,11,7,24,45,retail
869,869,16,1,9,20,157,education
870,870,6,6,5,24,70,realestate
871,871,17,22,8,18,183,software
872,872,19,16,8,23,94,education
873,873,4,2,7,25,174,retail
874,874,19,20,2,24,111,retail
875,875,9,21,7,26,66,pharmaceutical
876,876,6,8,6,11,59,software
877,877,9,21,2,28,63,software
878,878,18,11,5,24,63,retail
879,879,18,29,4,11,85,realestate
880,880,17,27,0,27,189,realestate
881,881,2,28,0,27,213,education
882,882,19,20,5,21,89,education
883,883,5,3,0,24,94,realestate
884,884,1,23,4,22,214,financial
885,885,6,13,3,19,81,retail
886,886,5,17,3,21,116,retail
887,887,18,23,7,0,59,pharmaceutical
888,888,13,28,9,5,130,education
889,889,6,29,5,0,75,education
890,890,13,19,3,17,102,education
891,891,8,1,9,29,207,financial
892,892,1,4,6,4,163,realestate
893,893,1,17,2,7,211,financial
894,894,12,14,2,21,89,retail
895,895,18,0,4,26,77,retail
896,896,2,12,2,18,209,retail
897,897,5,14,7,15,116,retail
898,898,6,9,7,2,44,software
899,899,7,0,8,1,163,education
900,900,18,23,9,4,54,education
901,901,8,3,2,5,196,pharmaceutical
902,902,3,28,0,24,181,financial
903,903,9,27,5,25,102,realestate
904,904,5,27,1,19,128,financial
905,905,8,15,6,24,118,realestate
906,906,19,11,5,29,75,financial
907,907,7,10,3,1,120,education
908,908,16,27,8,5,146,software
909,909,13,15,3,26,101,pharmaceutical
910,910,15,26,7,0,210,realestate
911,911,14,22,2,24,181,financial
912,912,11,4,4,3,108,retail
913,913,5,6,8,1,136,education
914,914,18,12,1,9,103,financial
915,915,15,15,4,7,185,software
916,916,5,29,7,16,103,retail
917,917,6,16,1,21,82,retail
918,918,13,14,0,28,107,retail
919,919,12,26,4,28,90,financial
920,920,3,15,8,9,176,realestate
921,921,4,29,6,7,186,retail
922,922,1,13,7,11,174,financial
923,923,4,0,5,12,168,education
924,924,9,11,4,28,80,financial
925,925,0,17,3,19,121,pharmaceutical
926,926,0,14,9,6,120,retail
927,927,4,22,6,7,180,pharmaceutical
928,928,6,19,8,15,74,pharmaceutical
929,929,2,27,1,26,210,software
930,930,12,16,9,25,83,pharmaceutical
931,931,16,5,5,28,153,pharmaceutical
932,932,16,10,9,8,159,pharmaceutical
933,933,12,27,0,5,104,software
934,934,13,1,2,26,109,financial
935,935,10,11,0,10,159,financial
936,936,16,14,5,12,148,pharmaceutical
937,937,0,15,7,20,123,retail
938,938,6,11,1,18,50,realestate
939,939,10,28,7,9,89,realestate
940,940,4,4,7,28,174,pharmaceutical
941,941,13,20,9,24,132,financial
942,942,10,26,7,9,93,retail
943,943,3,29,4,17,176,realestate
944,944,2,16,4,4,212,financial
945,945,17,23,3,20,189,software
946,946,16,19,5,7,161,retail
947,947,12,29,2,11,89,financial
948,948,18,9,8,24,94,realestate
949,949,10,15,5,14,111,realestate
950,950,5,9,3,26,109,software
951,951,4,19,5,15,174,education
952,952,12,4,5,4,102,realestate
953,953,11,27,1,2,107,pharmaceutical
954,954,11,2,8,22,141,education
955,955,11,0,7,14,128,education
956,956,3,24,4,16,208,pharmaceutical
957,957,18,4,6,18,100,pharmaceutical
958,958,3,22,0,23,211,financial
959,959,13,2,9,22,113,pharmaceutical
960,960,18,11,7,3,61,pharmaceutical
961,961,2,12,0,24,207,retail
962,962,16,4,7,19,151,software
963,963,8,16,5,21,146,education
964,964,9,21,6,20,99,education
965,965,10,29,4,26,120,retail
966,966,3,29,3,18,205,retail
967,967,7,6,6,16,167,realestate
968,968,5,24,4,2,115,retail
969,969,8,27,1,6,140,education
970,970,0,5,3,14,119,retail
971,971,11,26,7,13,131,financial
972,972,8,16,4,19,171,pharmaceutical
973,973,5,6,7,13,133,software
974,974,6,14,5,0,69,realestate
975,975,6,27,9,24,53,financial
976,976,4,3,9,14,171,realestate
977,977,9,26,8,28,49,retail
978,978,11,19,1,25,93,retail
979,979,13,24,2,15,99,pharmaceutical
980,980,11,4,1,12,97,software
981,981,0,5,2,12,123,education
982,982,19,10,0,1,78,retail
983,983,11,26,3,0,124,pharmaceutical
984,984,12,24,8,29,81,pharmaceutical
985,985,0,28,4,20,122,software
986,986,14,25,9,5,189,education
987,987,17,12,5,0,198,financial
988,988,2,0,5,25,201,realestate
989,989,17,8,2,23,204,pharmaceutical
990,990,10,14,4,18,143,financial
991,991,10,6,9,26,149,education
992,992,10,8,1,1,88,education
993,993,16,24,1,5,151,retail
994,994,3,6,5,15,203,pharmaceutical
995,995,8,29,8,24,138,financial
996,996,15,25,6,23,194,education
997,997,8,14,5,27,208,software
998,998,14,23,8,6,188,realestate
999,999,4,20,5,12,179,financial
1000,1000,17,2,7,8,192,retail
1001,1001,16,14,0,22,150,pharmaceutical
1002,1002,9,20,5,18,58,education
1003,1003,4,6,7,5,176,software
1004,1004,8,5,5,6,160,realestate
1005,1005,9,27,4,19,64,financial
1006,1006,12,7,4,16,100,software
1007,1007,10,10,8,5,102,realestate
1008,1008,3,17,9,12,177,realestate
1009,1009,18,5,5,7,102,retail
1010,1010,10,19,9,26,122,realestate
1011,1011,9,7,6,7,45,realestate
1012,1012,16,10,2,3,160,financial
1013,1013,3,18,0,4,210,software
1014,1014,3,7,4,19,204,education
1015,1015,12,28,7,6,94,retail
1016,1016,15,14,5,19,210,realestate
1017,1017,3,22,0,5,197,software
1018,1018,18,16,5,14,61,pharmaceutical
1019,1019,6,7,1,12,82,software
1020,1020,19,7,0,19,118,software
1021,1021,11,25,7,26,102,realestate
1022,1022,12,4,5,10,107,retail
1023,1023,3,0,4,6,206,software
1024,1024,9,26,3,10,59,education
1025,1025,4,25,2,0,158,realestate
1026,1026,19,25,8,25,89,retail
1027,1027,13,28,0,19,130,education
1028,1028,12,17,1,13,88,realestate
1029,1029,17,20,2,3,186,education
1030,1030,17,15,5,18,205,software
1031,1031,14,27,8,28,178,realestate
1032,1032,3,28,3,7,201,retail
1033,1033,7,23,5,14,122,financial
1034,1034,13,13,2,21,110,software
1035,1035,9,4,7,14,50,pharmaceutical
1036,1036,2,19,7,19,205,financial
1037,1037,13,21,3,26,139,realestate
1038,1038,11,12,2,29,127,financial
1039,1039,8,22,1,1,150,realestate
1040,1040,12,21,1,4,79,pharmaceutical
1041,1041,16,22,5,24,161,financial
1042,1042,17,24,9,11,189,pharmaceutical
1043,1043,7,26,8,15,154,financial
1044,1044,6,24,6,13,66,pharmaceutical
1045,1045,3,6,0,7,189,software
1046,1046,10,1,6,21,122,pharmaceutical
1047,1047,15,4,5,28,210,financial
1048,1048,4,2,3,16,152,realestate
1049,1049,11,11,7,5,92,education
1050,1050,19,3,7,17,119,pharmaceutical
1051,1051,2,14,2,22,218,software
1052,1052,13,14,2,22,133,retail
1053,1053,11,3,8,6,127,pharmaceutical
1054,1054,17,3,5,9,193,education
1055,1055,6,12,2,1,75,realestate
1056,1056,17,6,1,17,185,financial
1057,1057,16,24,8,6,149,realestate
1058,1058,13,25,3,18,130,retail
1059,1059,1,16,0,24,202,financial
1060,1060,7,23,8,18,126,pharmaceutical
1061,1061,5,22,8,20,106,software
1062,1062,9,25,3,21,51,retail
1063,1063,12,29,8,5,90,realestate
1064,1064,1,19,4,24,175,pharmaceutical
1065,1065,17,2,4,8,196,pharmaceutical
1066,1066,3,12,9,23,212,retail
1067,1067,0,28,0,26,122,realestate
1068,1068,12,16,8,4,79,pharmaceutical
1069,1069,18,10,9,15,58,pharmaceutical
1070,1070,16,17,8,21,162,retail
1071,1071,11,24,7,18,135,pharmaceutical
1072,1072,10,11,9,8,139,financial
1073,1073,10,28,1,18,88,realestate
1074,1074,11,18,1,26,117,realestate
1075,1075,3,25,1,5,165,software
1076,1076,16,27,9,22,160,pharmaceutical
1077,1077,0,9,3,28,121,retail
1078,1078,7,24,0,9,162,financial
1079,1079,9,12,6,15,84,software
1080,1080,5,14,8,19,97,retail
1081,1081,13,4,5,25,100,financial
1082,1082,5,21,2,24,118,financial
1083,1083,1,4,4,2,200,realestate
1084,1084,12,10,7,19,108,financial
1085,1085,17,5,5,24,204,financial
1086,1086,15,9,3,5,207,realestate
1087,1087,13,24,3,22,115,retail
1088,1088,8,15,2,22,164,retail
1089,1089,6,25,6,29,56,retail
1090,1090,14,9,8,17,180,software
1091,1091,9,20,8,21,61,pharmaceutical
1092,1092,17,27,7,22,186,software
1093,1093,8,18,9,1,203,financial
1094,1094,13,1,9,7,112,retail
1095,1095,7,12,5,24,160,financial
1096,1096,13,8,3,8,115,education
1097,1097,0,27,9,7,119,realestate
1098,1098,9,16,0,9,49,realestate
1099,1099,12,28,7,1,91,pharmaceutical
1100,1100,14,26,9,5,188,education
1101,1101,6,25,5,9,60,education
1102,1102,3,17,4,2,166,financial
1103,1103,11,1,7,7,141,software
1104,1104,15,7,4,25,195,retail
1105,1105,17,11,7,21,193,financial
1106,1106,14,4,3,16,196,financial
1107,1107,16,2,2,27,146,pharmaceutical
1108,1108,14,21,7,18,178,realestate
1109,1109,14,17,8,13,191,software
1110,1110,11,26,2,7,141,realestate
1111,1111,6,28,9,4,81,realestate
1112,1112,4,12,9,29,178,financial
1113,1113,1,5,6,19,163,realestate
1114,1114,12,10,8,26,78,software
1115,1115,14,24,2,2,179,education
1116,1116,16,26,8,15,147,financial
1117,1117,1,13,0,22,233,realestate
1118,1118,11,16,8,1,140,pharmaceutical
1119,1119,4,21,8,0,181,realestate
1120,1120,3,1,7,24,200,software
1121,1121,19,25,6,1,94,realestate
1122,1122,12,24,9,19,108,education
1123,1123,5,10,2,14,111,retail
1124,1124,9,1,0,29,52,pharmaceutical
1125,1125,11,11,8,2,124,retail
1126,1126,18,29,3,4,56,software
1127,1127,14,21,6,26,189,retail
1128,1128,5,5,9,6,129,pharmaceutical
1129,1129,18,19,3,12,71,realestate
1130,1130,14,20,7,20,185,realestate
1131,1131,4,2,4,13,134,software
1132,1132,2,1,3,13,219,financial
1133,1133,3,28,3,4,182,retail
1134,1134,15,4,4,5,181,software
1135,1135,5,5,4,3,139,education
1136,1136,5,11,1,11,126,financial
1137,1137,0,29,7,23,121,financial
1138,1138,1,4,4,16,197,retail
1139,1139,12,0,4,16,80,software
1140,1140,0,5,3,21,120,realestate
1141,1141,18,16,4,8,71,financial
1142,1142,6,25,3,19,76,financial
1143,1143,16,15,5,22,147,pharmaceutical
1144,1144,6,21,4,7,65,financial
1145,1145,2,0,4,14,210,software
1146,1146,4,15,6,17,165,retail
1147,1147,11,19,4,8,100,education
1148,1148,18,13,7,12,96,retail
1149,1149,8,16,8,12,184,pharmaceutical
1150,1150,16,12,2,27,151,pharmaceutical
1151,1151,18,28,7,19,55,education
1152,1152,17,24,6,20,205,education
1153,1153,10,29,4,16,120,software
1154,1154,8,3,0,27,133,education
1155,1155,5,20,7,15,129,financial
1156,1156,19,12,4,19,93,realestate
1157,1157,8,29,0,0,191,education
1158,1158,11,17,3,27,141,financial
1159,1159,17,2,6,29,203,retail
1160,1160,17,19,4,2,203,education
1161,1161,4,25,6,1,137,software
1162,1162,14,29,7,10,181,pharmaceutical
1163,1163,2,8,9,4,219,financial
1164,1164,18,25,5,26,71,education
1165,1165,8,8,4,5,187,realestate
1166,1166,12,24,3,26,109,pharmaceutical
1167,1167,8,15,4,29,131,realestate
1168,1168,9,2,6,23,66,financial
1169,1169,13,21,3,9,119,financial
1170,1170,8,7,6,15,114,financial
1171,1171,17,6,7,21,195,retail
1172,1172,19,6,8,3,101,education
1173,1173,2,22,9,29,214,software
1174,1174,3,13,0,4,214,education
1175,1175,9,24,4,16,44,software
1176,1176,6,8,2,18,50,retail
1177,1177,2,20,8,6,214,realestate
1178,1178,13,22,2,13,128,financial
1179,1179,10,0,4,22,159,software
1180,1180,13,21,3,7,120,software
1181,1181,12,24,1,29,88,realestate
1182,1182,16,23,5,7,148,realestate
1183,1183,7,24,4,18,120,financial
1184,1184,0,23,3,26,119,software
1185,1185,0,8,9,5,122,financial
1186,1186,11,11,3,7,95,financial
1187,1187,17,8,9,7,203,pharmaceutical
1188,1188,11,28,8,15,118,retail
1189,1189,1,25,0,28,189,education
1190,1190,9,5,7,18,89,realestate
1191,1191,5,14,7,1,123,financial
1192,1192,7,15,1,3,121,education
1193,1193,17,24,3,0,188,pharmaceutical
1194,1194,9,0,3,22,54,financial
1195,1195,4,27,4,26,151,financial
1196,1196,17,22,8,28,183,realestate
1197,1197,17,9,1,16,193,software
1198,1198,0,11,2,23,119,realestate
1199,1199,0,28,0,6,120,realestate
1200,1200,7,16,9,3,156,software
1201,1201,10,7,5,19,134,realestate
1202,1202,3,25,4,0,199,retail
1203,1203,0,26,7,28,121,financial
1204,1204,18,6,5,15,75,retail
1205,1205,8,2,4,18,200,retail
1206,1206,7,13,5,10,158,retail
1207,1207,9,19,0,4,105,education
1208,1208,14,28,5,15,191,education
1209,1209,10,15,4,17,151,software
1210,1210,11,6,5,1,113,software
1211,1211,13,28,7,10,110,pharmaceutical
1212,1212,1,17,8,28,228,realestate
1213,1213,15,4,6,2,205,realestate
1214,1214,7,5,9,7,134,software
1215,1215,4,3,2,7,155,software
1216,1216,6,19,0,21,77,education
1217,1217,17,3,9,9,205,realestate
1218,1218,19,14,8,1,87,software
1219,1219,16,5,6,11,147,financial
1220,1220,6,7,3,29,62,education
1221,1221,17,15,9,28,189,education
1222,1222,7,16,0,7,135,software
1223,1223,9,28,6,25,70,realestate
1224,1224,13,18,6,4,113,software
1225,1225,2,9,5,8,204,financial
1226,1226,16,1,5,19,151,retail
1227,1227,0,19,9,19,122,software
1228,1228,11,19,7,17,125,education
1229,1229,2,12,6,10,219,software
1230,1230,12,12,9,5,86,software
1231,1231,2,24,9,19,212,software
1232,1232,3,13,2,8,179,education
1233,1233,7,2,4,1,119,pharmaceutical
1234,1234,2,2,7,25,205,financial
1235,1235,5,2,0,20,119,software
1236,1236,1,28,8,5,225,realestate
1237,1237,11,19,0,1,97,software
1238,1238,17,1,0,1,188,realestate
1239,1239,7,23,6,12,142,pharmaceutical
1240,1240,8,15,4,0,202,education
1241,1241,5,12,6,29,99,education
1242,1242,2,0,4,18,216,education
1243,1243,18,3,5,6,98,education
1244,1244,18,23,9,19,69,realestate
1245,1245,0,16,3,11,121,realestate
1246,1246,14,22,5,13,179,education
1247,1247,0,9,4,25,122,pharmaceutical
1248,1248,16,16,7,23,157,retail
1249,1249,4,22,0,28,143,retail
1250,1250,14,27,2,2,186,retail
1251,1251,4,22,7,29,148,pharmaceutical
1252,1252,7,20,4,13,160,financial
1253,1253,0,27,2,7,119,pharmaceutical
1254,1254,18,8,5,27,57,software
1255,1255,2,0,0,2,201,education
1256,1256,8,28,3,1,189,realestate
1257,1257,3,29,2,11,207,retail
1258,1258,5,25,0,17,127,realestate
1259,1259,12,0,1,17,83,pharmaceutical
1260,1260,13,8,1,9,140,software
1261,1261,0,15,0,14,120,education
1262,1262,6,13,2,28,63,pharmaceutical
1263,1263,18,1,1,7,91,financial
1264,1264,16,26,3,13,158,realestate
1265,1265,17,1,8,13,204,software
1266,1266,5,21,1,26,119,realestate
1267,1267,4,16,3,0,187,financial
1268,1268,13,21,8,13,89,software
1269,1269,19,21,4,23,87,education
1270,1270,13,17,1,20,119,realestate
1271,1271,15,13,4,29,210,pharmaceutical
1272,1272,13,1,6,4,96,financial
1273,1273,13,16,8,22,124,realestate
1274,1274,14,28,3,1,195,education
1275,1275,14,2,4,12,186,retail
1276,1276,9,22,2,3,71,retail
1277,1277,11,17,6,1,131,financial
1278,1278,12,19,0,29,92,education
1279,1279,8,2,7,10,155,retail
1280,1280,10,27,8,20,155,pharmaceutical
1281,1281,6,17,8,4,59,retail
1282,1282,6,1,8,3,54,financial
1283,1283,11,1,4,26,104,software
1284,1284,18,8,0,7,103,retail
1285,1285,6,21,9,3,50,retail
1286,1286,9,17,4,4,100,realestate
1287,1287,3,27,8,23,209,software
1288,1288,8,9,2,28,203,financial
1289,1289,3,13,0,17,177,realestate
1290,1290,9,17,7,11,70,realestate
1291,1291,17,11,2,0,204,pharmaceutical
1292,1292,6,21,7,27,42,education
1293,1293,9,9,4,14,97,financial
1294,1294,6,5,0,4,77,realestate
1295,1295,19,24,7,9,76,retail
1296,1296,11,21,8,0,134,financial
1297,1297,8,5,7,11,163,realestate
1298,1298,8,26,3,2,204,financial
1299,1299,9,7,5,6,56,software
1300,1300,17,9,0,26,187,education
1301,1301,12,19,7,4,110,realestate
1302,1302,9,19,1,21,64,software
1303,1303,2,19,6,1,211,software
1304,1304,17,0,5,2,190,pharmaceutical
1305,1305,10,8,2,15,131,pharmaceutical
1306,1306,15,23,3,6,207,education
1307,1307,17,6,6,28,191,pharmaceutical
1308,1308,1,11,4,24,161,software
1309,1309,8,16,4,10,166,retail
1310,1310,10,4,2,19,92,retail
1311,1311,15,5,1,5,187,retail
1312,1312,3,19,3,3,191,education
1313,1313,19,25,9,3,74,financial
1314,1314,1,23,0,17,205,retail
1315,1315,7,24,7,8,132,software
1316,1316,3,0,4,23,188,software
1317,1317,11,18,1,28,136,financial
1318,1318,5,1,3,2,114,pharmaceutical
1319,1319,5,18,2,27,132,realestate
1320,1320,1,26,1,4,212,software
1321,1321,3,21,4,10,189,retail
1322,1322,16,18,0,26,156,realestate
1323,1323,19,26,7,27,97,retail
1324,1324,18,1,8,13,94,education
1325,1325,7,21,9,16,139,realestate
1326,1326,7,21,3,11,167,education
1327,1327,9,12,3,26,50,pharmaceutical
1328,1328,4,18,1,28,194,education
1329,1329,12,6,5,25,94,software
1330,1330,19,18,2,9,119,retail
1331,1331,16,22,5,15,148,retail
1332,1332,9,3,9,28,77,financial
1333,1333,7,2,7,27,139,retail
1334,1334,14,7,1,13,193,education
1335,1335,3,9,0,1,201,realestate
1336,1336,11,18,7,25,112,software
1337,1337,14,8,1,29,186,realestate
1338,1338,10,0,0,28,154,realestate
1339,1339,7,8,5,20,145,retail
1340,1340,14,12,1,14,193,realestate
1341,1341,19,15,7,14,76,realestate
1342,1342,4,29,5,0,172,software
1343,1343,13,9,8,2,138,pharmaceutical
1344,1344,9,23,6,7,74,software
1345,1345,2,2,7,0,200,retail
1346,1346,9,2,6,9,45,financial
1347,1347,2,0,4,20,219,realestate
1348,1348,7,29,2,16,156,pharmaceutical
1349,1349,8,20,1,21,189,pharmaceutical
1350,1350,10,20,8,8,154,education
1351,1351,10,23,1,27,148,retail
1352,1352,14,27,4,25,187,pharmaceutical
1353,1353,7,11,0,18,130,software
1354,1354,14,29,1,20,187,education
1355,1355,2,23,4,25,210,financial
1356,1356,5,29,3,11,122,education
1357,1357,1,23,8,11,233,pharmaceutical
1358,1358,14,28,7,26,196,financial
1359,1359,8,5,4,27,199,education
1360,1360,19,24,2,8,98,financial
1361,1361,0,0,1,7,122,software
1362,1362,6,5,8,15,44,pharmaceutical
1363,1363,9,3,7,5,86,financial
1364,1364,1,18,1,26,235,pharmaceutical
1365,1365,2,8,1,23,219,pharmaceutical
1366,1366,15,5,9,14,193,realestate
1367,1367,7,2,5,22,145,education
1368,1368,4,28,4,28,187,financial
1369,1369,18,18,9,7,80,pharmaceutical
1370,1370,5,24,2,12,125,financial
1371,1371,16,11,2,6,148,retail
1372,1372,5,24,0,13,121,education
1373,1373,13,19,8,27,89,software
1374,1374,13,11,2,19,89,software
1375,1375,19,29,8,4,98,financial
1376,1376,14,23,7,18,183,pharmaceutical
1377,1377,8,10,0,22,129,realestate
1378,1378,12,0,1,29,84,financial
1379,1379,1,6,4,8,174,education
1380,1380,1,5,0,10,167,software
1381,1381,7,14,5,1,124,pharmaceutical
1382,1382,3,7,0,18,174,retail
1383,1383,9,26,2,0,92,pharmaceutical
1384,1384,0,12,3,12,120,education
1385,1385,10,26,6,13,116,pharmaceutical
1386,1386,11,20,5,8,97,financial
1387,1387,14,6,9,24,183,retail
1388,1388,12,29,5,7,99,realestate
1389,1389,7,28,4,16,129,software
1390,1390,10,1,5,18,149,realestate
1391,1391,9,16,7,15,46,pharmaceutical
1392,1392,12,11,5,9,94,software
1393,1393,1,22,3,29,199,software
1394,1394,17,25,9,2,196,pharmaceutical
1395,1395,4,17,5,18,170,retail
1396,1396,2,14,5,0,206,education
1397,1397,19,2,9,16,98,pharmaceutical
1398,1398,5,20,1,0,132,financial
1399,1399,1,15,8,4,180,financial
1400,1400,1,11,2,21,215,financial
1401,1401,9,13,6,15,70,financial
1402,1402,17,20,1,24,188,pharmaceutical
1403,1403,16,8,8,19,160,financial
1404,1404,13,28,6,1,93,financial
1405,1405,8,11,7,7,154,retail
1406,1406,1,22,3,17,226,pharmaceutical
1407,1407,8,28,6,29,124,pharmaceutical
1408,1408,3,9,5,15,174,financial
1409,1409,17,10,5,9,202,retail
1410,1410,5,16,8,24,101,retail
1411,1411,1,0,1,13,155,retail
1412,1412,1,7,3,25,230,financial
1413,1413,6,6,3,16,70,financial
1414,1414,17,0,8,12,183,pharmaceutical
1415,1415,7,16,1,8,154,software
1416,1416,3,19,8,12,203,retail
1417,1417,13,12,2,15,139,realestate
1418,1418,16,20,3,11,158,realestate
1419,1419,15,29,7,7,199,realestate
1420,1420,18,10,4,15,70,software
1421,1421,17,13,4,9,202,software
1422,1422,4,20,0,2,181,software
1423,1423,12,22,3,3,80,education
1424,1424,10,29,9,2,114,software
1425,1425,14,7,1,11,198,financial
1426,1426,8,14,2,5,122,financial
1427,1427,12,10,9,9,107,realestate
1428,1428,15,4,7,11,198,financial
1429,1429,17,8,3,9,185,pharmaceutical
1430,1430,15,28,6,15,196,education
1431,1431,5,16,8,1,112,realestate
1432,1432,19,15,3,19,77,software
1433,1433,1,22,4,22,231,realestate
1434,1434,2,17,3,15,219,financial
1435,1435,15,0,1,17,210,retail
1436,1436,14,9,2,28,192,education
1437,1437,14,11,7,4,197,financial
1438,1438,9,29,2,24,101,pharmaceutical
1439,1439,17,5,8,28,201,financial
1440,1440,11,1,5,23,139,education
1441,1441,8,8,8,6,174,retail
1442,1442,11,25,0,7,141,pharmaceutical
1443,1443,8,14,7,15,174,pharmaceutical
1444,1444,16,28,3,15,161,education
1445,1445,16,9,0,29,152,software
1446,1446,11,17,8,12,132,pharmaceutical
1447,1447,14,6,3,27,190,software
1448,1448,11,18,7,29,118,software
1449,1449,11,0,2,2,138,financial
1450,1450,3,16,9,21,181,pharmaceutical
1451,1451,12,8,4,10,86,financial
1452,1452,3,19,1,9,217,pharmaceutical
1453,1453,7,22,0,17,150,pharmaceutical
1454,1454,15,6,4,12,196,education
1455,1455,0,21,1,4,122,education
1456,1456,18,19,3,26,90,software
1457,1457,0,18,9,1,121,financial
1458,1458,0,23,0,7,119,financial
1459,1459,19,22,3,28,98,realestate
1460,1460,4,21,8,10,165,pharmaceutical
1461,1461,8,12,7,18,112,pharmaceutical
1462,1462,15,1,0,13,196,software
1463,1463,12,0,9,4,87,pharmaceutical
1464,1464,17,14,1,23,183,financial
1465,1465,7,22,9,23,151,pharmaceutical
1466,1466,1,10,2,26,172,retail
1467,1467,12,14,9,21,99,financial
1468,1468,8,21,3,10,128,retail
1469,1469,2,9,9,8,202,software
1470,1470,17,4,4,16,199,realestate
1471,1471,1,29,3,0,188,pharmaceutical
1472,1472,16,12,5,5,161,software
1473,1473,2,25,3,21,205,pharmaceutical
1474,1474,16,22,3,10,152,realestate
1475,1475,7,0,3,8,161,education
1476,1476,9,24,2,8,65,education
1477,1477,13,1,0,15,103,pharmaceutical
1478,1478,17,12,0,21,204,retail
1479,1479,6,24,8,26,56,realestate
1480,1480,8,3,4,14,197,education
1481,1481,14,8,8,12,196,pharmaceutical
1482,1482,13,7,2,9,107,realestate
1483,1483,15,25,0,6,178,realestate
1484,1484,16,23,8,27,146,software
1485,1485,18,17,9,21,99,retail
1486,1486,8,23,9,8,114,pharmaceutical
1487,1487,5,27,1,24,93,realestate
1488,1488,8,7,1,27,199,software
1489,1489,3,6,3,19,191,education
1490,1490,15,12,1,15,179,financial
1491,1491,11,2,8,8,138,pharmaceutical
1492,1492,13,18,9,3,98,software
1493,1493,0,8,3,17,119,retail
1494,1494,13,4,5,21,108,realestate
1495,1495,17,18,0,11,200,realestate
1496,1496,14,8,6,0,184,pharmaceutical
1497,1497,7,20,8,11,158,software
1498,1498,0,15,7,8,122,pharmaceutical
1499,1499,1,17,0,10,217,education
1500,1500,8,6,0,26,178,retail
1501,1501,16,3,7,3,154,education
1502,1502,16,29,0,13,161,pharmaceutical
1503,1503,0,3,5,24,120,financial
1504,1504,8,8,2,18,206,financial
1505,1505,3,7,2,16,215,realestate
1506,1506,7,2,9,25,130,financial
1507,1507,10,27,1,6,105,software
1508,1508,0,7,1,27,123,pharmaceutical
1509,1509,9,28,4,16,90,software
1510,1510,0,29,1,7,119,retail
1511,1511,6,8,7,19,76,realestate
1512,1512,17,14,5,23,188,financial
1513,1513,0,25,5,17,121,realestate
1514,1514,19,14,4,2,73,retail
1515,1515,6,3,5,7,44,realestate
1516,1516,4,20,0,28,133,realestate
1517,1517,13,15,0,11,126,realestate
1518,1518,19,3,4,14,114,financial
1519,1519,15,5,5,0,196,pharmaceutical
1520,1520,4,17,6,4,192,education
1521,1521,19,7,6,18,78,education
1522,1522,6,14,0,19,83,retail
1523,1523,6,20,8,25,56,realestate
1524,1524,7,23,4,3,148,financial
1525,1525,17,14,0,26,195,pharmaceutical
1526,1526,6,24,9,23,41,pharmaceutical
1527,1527,9,2,2,4,104,education
1528,1528,5,15,0,25,126,software
1529,1529,12,0,9,29,108,pharmaceutical
1530,1530,16,13,5,3,150,financial
1531,1531,8,13,4,16,203,education
1532,1532,17,10,4,26,188,retail
1533,1533,12,19,4,11,107,software
1534,1534,7,2,8,29,144,retail
1535,1535,11,11,9,21,99,financial
1536,1536,0,5,4,25,123,retail
1537,1537,18,8,3,16,86,software
1538,1538,3,23,3,17,212,retail
1539,1539,4,12,0,15,141,retail
1540,1540,17,14,4,20,193,software
1541,1541,17,22,5,9,192,retail
1542,1542,12,13,4,4,83,realestate
1543,1543,10,29,7,27,151,software
1544,1544,11,2,8,2,112,realestate
1545,1545,9,11,1,1,101,pharmaceutical
1546,1546,11,3,4,10,102,education
1547,1547,15,5,8,6,199,education
1548,1548,3,29,7,16,207,realestate
1549,1549,11,7,0,29,101,education
1550,1550,11,11,9,1,105,software
1551,1551,3,22,0,8,188,retail
1552,1552,17,21,4,10,204,pharmaceutical
1553,1553,11,1,3,20,122,education
1554,1554,1,18,5,24,196,retail
1555,1555,14,9,1,17,179,software
1556,1556,9,18,5,3,82,education
1557,1557,12,4,0,19,100,software
1558,1558,1,17,4,2,230,financial
1559,1559,11,28,7,17,125,software
1560,1560,7,22,8,19,152,realestate
1561,1561,11,12,4,24,115,realestate
1562,1562,6,17,5,9,50,pharmaceutical
1563,1563,10,23,0,16,145,software
1564,1564,15,4,4,18,196,education
1565,1565,3,2,5,11,176,retail
1566,1566,17,10,4,11,203,retail
1567,1567,17,6,2,10,202,realestate
1568,1568,0,18,0,7,123,education
1569,1569,8,15,9,25,203,pharmaceutical
1570,1570,2,8,2,20,211,financial
1571,1571,15,9,4,11,190,financial
1572,1572,13,29,2,13,140,realestate
1573,1573,3,9,5,26,177,software
1574,1574,0,24,5,1,119,financial
1575,1575,3,4,7,0,183,software
1576,1576,6,10,1,10,57,pharmaceutical
1577,1577,2,1,8,13,209,retail
1578,1578,19,21,5,2,78,retail
1579,1579,4,24,9,1,137,pharmaceutical
1580,1580,5,21,4,5,125,pharmaceutical
1581,1581,10,27,4,0,116,pharmaceutical
1582,1582,0,23,2,8,120,education
1583,1583,17,28,4,11,203,education
1584,1584,4,28,5,8,187,software
1585,1585,8,25,0,13,121,pharmaceutical
1586,1586,17,27,6,5,198,software
1587,1587,16,18,0,28,150,financial
1588,1588,16,5,3,23,156,pharmaceutical
1589,1589,11,14,6,0,102,education
1590,1590,3,12,4,2,205,pharmaceutical
1591,1591,3,19,2,2,198,realestate
1592,1592,12,25,2,14,110,retail
1593,1593,4,25,5,5,155,software
1594,1594,4,25,7,3,134,retail
1595,1595,0,9,0,25,119,education
1596,1596,19,8,1,8,104,education
1597,1597,7,9,1,17,155,realestate
1598,1598,15,19,5,25,209,retail
1599,1599,7,11,6,14,140,realestate
1600,1600,0,15,2,16,122,pharmaceutical
1601,1601,13,22,2,24,123,financial
1602,1602,15,10,6,8,189,realestate
1603,1603,10,20,7,18,110,software
1604,1604,11,2,6,20,115,software
1605,1605,9,13,1,21,54,education
1606,1606,17,22,0,18,197,financial
1607,1607,12,5,4,27,79,pharmaceutical
1608,1608,2,3,9,24,203,retail
1609,1609,7,18,2,3,137,retail
1610,1610,1,25,3,3,233,education
1611,1611,6,11,8,14,40,realestate
1612,1612,15,4,2,22,208,realestate
1613,1613,14,27,2,17,187,software
1614,1614,7,6,1,8,138,retail
1615,1615,12,0,7,7,103,education
1616,1616,9,20,6,29,86,financial
1617,1617,17,18,6,10,198,education
1618,1618,8,21,7,10,181,software
1619,1619,4,15,9,6,141,realestate
1620,1620,14,23,0,9,179,pharmaceutical
1621,1621,16,8,7,26,157,retail
1622,1622,8,21,5,21,143,retail
1623,1623,6,4,2,2,62,retail
1624,1624,19,8,9,11,73,pharmaceutical
1625,1625,6,20,0,7,70,education
1626,1626,16,10,3,3,146,financial
1627,1627,12,3,8,29,93,education
1628,1628,4,0,0,3,154,realestate
1629,1629,14,10,9,12,186,software
1630,1630,16,20,4,25,154,education
1631,1631,16,10,6,20,149,retail
1632,1632,11,18,3,13,137,pharmaceutical
1633,1633,4,7,6,17,136,education
1634,1634,10,10,5,17,129,pharmaceutical
1635,1635,4,10,9,18,131,financial
1636,1636,7,21,3,25,166,retail
1637,1637,18,16,9,20,82,financial
1638,1638,10,3,5,19,135,pharmaceutical
1639,1639,1,15,6,24,162,pharmaceutical
1640,1640,14,2,8,14,186,retail
1641,1641,0,25,3,13,120,financial
1642,1642,15,4,4,16,180,realestate
1643,1643,5,1,8,11,107,pharmaceutical
1644,1644,0,27,2,1,122,pharmaceutical
1645,1645,13,21,3,0,86,financial
1646,1646,4,17,0,23,170,realestate
1647,1647,12,29,9,17,93,retail
1648,1648,0,25,3,21,120,realestate
1649,1649,15,21,9,12,184,pharmaceutical
1650,1650,15,23,8,24,199,financial
1651,1651,6,26,5,6,84,realestate
1652,1652,17,14,4,28,203,education
1653,1653,14,2,9,26,191,software
1654,1654,7,1,0,16,133,retail
1655,1655,15,15,7,11,209,pharmaceutical
1656,1656,10,6,1,5,109,retail
1657,1657,2,12,5,27,216,pharmaceutical
1658,1658,0,6,0,21,119,financial
1659,1659,3,6,3,16,172,retail
1660,1660,10,3,8,19,141,education
1661,1661,3,12,2,5,191,pharmaceutical
1662,1662,5,15,9,24,109,software
1663,1663,0,5,3,5,121,retail
1664,1664,6,4,1,17,41,realestate
1665,1665,2,19,5,10,211,retail
1666,1666,19,19,4,19,119,education
1667,1667,10,14,2,11,105,realestate
1668,1668,2,28,2,1,215,retail
1669,1669,14,10,9,23,199,education
1670,1670,16,1,9,15,147,software
1671,1671,15,29,4,2,183,financial
1672,1672,8,25,7,4,165,financial
1673,1673,16,5,2,0,149,retail
1674,1674,11,1,1,27,114,realestate
1675,1675,13,8,3,22,120,education
1676,1676,4,27,5,20,156,software
1677,1677,8,20,0,8,136,education
1678,1678,2,1,9,27,204,financial
1679,1679,10,15,3,24,116,software
1680,1680,13,8,7,15,104,pharmaceutical
1681,1681,6,10,0,11,77,financial
1682,1682,3,6,5,28,188,financial
1683,1683,10,3,6,14,92,financial
1684,1684,16,26,6,21,155,financial
1685,1685,1,28,5,3,206,pharmaceutical
1686,1686,0,2,8,17,123,education
1687,1687,7,21,2,21,119,pharmaceutical
1688,1688,19,9,7,22,79,pharmaceutical
1689,1689,19,21,4,23,114,pharmaceutical
1690,1690,18,28,6,17,59,realestate
1691,1691,5,17,1,16,138,realestate
1692,1692,9,13,7,12,53,financial
1693,1693,2,16,9,12,209,realestate
1694,1694,17,0,8,8,198,retail
1695,1695,4,9,0,9,187,pharmaceutical
1696,1696,17,15,4,6,190,retail
1697,1697,19,3,8,0,117,realestate
1698,1698,14,4,2,18,190,pharmaceutical
1699,1699,17,24,5,1,200,pharmaceutical
1700,1700,7,1,4,3,126,retail
1701,1701,5,23,2,28,99,financial
1702,1702,10,11,1,26,106,pharmaceutical
1703,1703,2,13,3,4,215,financial
1704,1704,6,10,9,8,73,retail
1705,1705,8,9,3,9,143,financial
1706,1706,11,16,1,13,117,pharmaceutical
1707,1707,14,21,3,17,179,realestate
1708,1708,8,1,8,23,135,education
1709,1709,16,6,8,14,159,realestate
1710,1710,13,21,4,28,100,pharmaceutical
1711,1711,1,4,2,7,174,education
1712,1712,11,17,6,24,104,financial
1713,1713,5,24,3,17,94,financial
1714,1714,14,15,1,16,185,pharmaceutical
1715,1715,4,21,6,27,151,education
1716,1716,8,0,2,12,158,retail
1717,1717,10,22,1,15,134,software
1718,1718,9,7,2,4,61,retail
1719,1719,13,0,0,1,124,pharmaceutical
1720,1720,3,21,7,17,171,retail
1721,1721,2,8,4,12,202,retail
1722,1722,4,18,0,15,178,realestate
1723,1723,14,24,7,29,199,software
1724,1724,2,12,6,0,199,realestate
1725,1725,3,6,6,15,205,realestate
1726,1726,1,20,2,26,214,financial
1727,1727,7,19,5,5,120,pharmaceutical
1728,1728,4,7,4,16,130,pharmaceutical
1729,1729,18,0,5,28,71,pharmaceutical
1730,1730,19,28,0,28,118,pharmaceutical
1731,1731,3,22,0,1,182,retail
1732,1732,10,4,0,27,147,education
1733,1733,15,20,1,28,187,realestate
1734,1734,9,23,5,28,70,software
1735,1735,12,23,3,9,108,pharmaceutical
1736,1736,8,1,4,22,168,education
1737,1737,15,4,4,20,216,software
1738,1738,9,16,0,13,73,pharmaceutical
1739,1739,0,6,2,26,119,retail
1740,1740,18,21,2,18,56,financial
1741,1741,0,0,8,18,120,retail
1742,1742,14,7,1,28,193,retail
1743,1743,13,11,7,17,104,software
1744,1744,15,23,6,11,211,realestate
1745,1745,13,11,3,18,133,financial
1746,1746,18,25,9,1,73,retail
1747,1747,15,12,4,19,184,education
1748,1748,0,7,3,14,121,realestate
1749,1749,7,28,7,10,144,financial
1750,1750,19,11,7,9,89,pharmaceutical
1751,1751,9,21,4,6,105,software
1752,1752,5,3,9,16,136,education
1753,1753,7,16,7,6,132,retail
1754,1754,0,26,3,17,119,software
1755,1755,18,13,1,3,98,pharmaceutical
1756,1756,4,28,3,17,143,education
1757,1757,2,9,4,15,201,education
1758,1758,12,13,9,18,101,pharmaceutical
1759,1759,10,12,9,9,93,retail
1760,1760,7,7,1,8,135,retail
1761,1761,4,13,9,24,149,realestate
1762,1762,10,17,6,23,154,realestate
1763,1763,13,4,2,7,107,pharmaceutical
1764,1764,7,15,7,27,122,pharmaceutical
1765,1765,5,26,0,0,130,pharmaceutical
1766,1766,9,1,9,2,84,realestate
1767,1767,0,8,8,28,119,pharmaceutical
1768,1768,12,24,1,20,109,pharmaceutical
1769,1769,3,23,3,29,170,education
1770,1770,15,10,9,5,195,retail
1771,1771,15,29,7,15,200,retail
1772,1772,13,29,2,13,104,education
1773,1773,4,20,8,26,194,retail
1774,1774,17,8,8,12,195,education
1775,1775,19,1,2,11,74,realestate
1776,1776,5,24,1,23,92,education
1777,1777,18,18,9,1,53,realestate
1778,1778,13,19,8,18,130,financial
1779,1779,5,6,6,24,98,realestate
1780,1780,12,28,7,19,83,pharmaceutical
1781,1781,6,6,5,7,51,financial
1782,1782,12,2,2,9,89,education
1783,1783,8,21,6,17,148,realestate
1784,1784,19,29,5,18,85,realestate
1785,1785,6,2,7,17,67,software
1786,1786,17,11,5,1,194,retail
1787,1787,16,21,5,10,160,education
1788,1788,19,28,1,18,91,education
1789,1789,4,9,0,19,155,education
1790,1790,19,1,9,24,78,realestate
1791,1791,12,2,1,20,92,pharmaceutical
1792,1792,13,23,3,22,105,pharmaceutical
1793,1793,8,16,5,26,180,financial
1794,1794,11,4,0,11,114,software
1795,1795,11,13,7,16,118,software
1796,1796,19,10,2,11,73,pharmaceutical
1797,1797,6,7,2,9,68,financial
1798,1798,1,17,4,14,179,software
1799,1799,7,9,3,24,129,pharmaceutical
1800,1800,16,9,1,21,158,retail
1801,1801,9,15,6,9,90,realestate
1802,1802,11,27,8,26,111,financial
1803,1803,14,9,9,14,193,software
1804,1804,10,14,1,12,107,education
1805,1805,8,21,1,3,159,education
1806,1806,1,14,7,5,232,education
1807,1807,18,0,6,16,80,pharmaceutical
1808,1808,9,6,3,29,61,pharmaceutical
1809,1809,7,21,9,21,120,financial
1810,1810,17,20,0,7,184,pharmaceutical
1811,1811,8,15,4,3,128,pharmaceutical
1812,1812,8,2,3,28,149,software
1813,1813,5,25,1,28,125,pharmaceutical
1814,1814,16,22,5,2,152,financial
1815,1815,9,2,0,18,71,software
1816,1816,3,15,0,17,192,education
1817,1817,18,2,1,16,78,software
1818,1818,2,19,3,5,218,retail
1819,1819,6,6,9,15,71,education
1820,1820,8,13,8,8,184,software
1821,1821,8,8,4,16,166,realestate
1822,1822,10,20,9,25,136,software
1823,1823,10,25,1,8,98,retail
1824,1824,19,5,8,23,109,pharmaceutical
1825,1825,8,24,6,29,204,financial
1826,1826,10,18,7,10,136,retail
1827,1827,9,20,7,4,105,software
1828,1828,13,27,0,2,91,financial
1829,1829,13,4,0,1,141,software
1830,1830,9,7,9,16,88,retail
1831,1831,3,17,8,10,196,education
1832,1832,2,28,6,25,205,financial
1833,1833,8,20,9,22,151,financial
1834,1834,7,18,8,8,121,realestate
1835,1835,19,0,6,5,79,retail
1836,1836,11,13,0,4,96,realestate
1837,1837,8,21,4,2,168,software
1838,1838,7,3,2,18,166,software
1839,1839,19,26,4,23,85,realestate
1840,1840,14,17,0,29,185,software
1841,1841,17,5,7,16,190,pharmaceutical
1842,1842,0,12,3,1,121,financial
1843,1843,14,23,0,10,182,software
1844,1844,13,29,1,7,124,financial
1845,1845,2,15,6,2,207,software
1846,1846,18,29,0,24,52,education
1847,1847,9,23,2,6,79,retail
1848,1848,10,4,8,29,117,education
1849,1849,12,17,1,0,92,retail
1850,1850,9,28,9,21,54,retail
1851,1851,18,4,3,29,64,pharmaceutical
1852,1852,17,20,7,1,193,education
1853,1853,1,22,1,26,180,software
1854,1854,8,20,4,9,164,retail
1855,1855,15,2,6,10,195,pharmaceutical
1856,1856,1,19,6,0,169,realestate
1857,1857,13,11,5,5,88,retail
1858,1858,19,1,4,16,80,retail
1859,1859,15,5,3,8,202,education
1860,1860,9,0,8,2,47,financial
1861,1861,4,21,5,14,185,financial
1862,1862,6,15,8,29,45,software
1863,1863,11,18,3,21,97,retail
1864,1864,7,16,4,25,142,pharmaceutical
1865,1865,6,7,1,0,71,pharmaceutical
1866,1866,14,28,8,6,197,financial
1867,1867,8,7,8,1,182,software
1868,1868,18,29,0,25,60,pharmaceutical
1869,1869,4,20,2,1,154,financial
1870,1870,6,25,0,27,85,software
1871,1871,13,28,6,11,108,education
1872,1872,9,29,8,20,46,retail
1873,1873,12,25,4,26,85,retail
1874,1874,0,20,6,3,120,software
1875,1875,5,14,6,6,138,pharmaceutical
1876,1876,13,3,4,19,120,pharmaceutical
1877,1877,12,5,4,24,96,pharmaceutical
1878,1878,19,9,6,6,79,pharmaceutical
1879,1879,15,0,5,6,209,pharmaceutical
1880,1880,4,16,6,27,160,pharmaceutical
1881,1881,11,23,5,21,111,realestate
1882,1882,5,13,7,15,111,pharmaceutical
1883,1883,18,12,4,16,103,financial
1884,1884,8,7,3,8,115,education
1885,1885,13,4,7,13,112,realestate
1886,1886,5,1,8,14,129,education
1887,1887,15,14,5,22,206,software
1888,1888,14,12,9,15,190,pharmaceutical
1889,1889,10,12,0,5,157,retail
1890,1890,14,24,5,13,184,pharmaceutical
1891,1891,5,28,1,12,116,pharmaceutical
1892,1892,16,7,3,10,162,realestate
1893,1893,18,25,0,18,70,realestate
1894,1894,8,27,9,15,136,retail
1895,1895,12,10,8,12,106,realestate
1896,1896,18,29,5,8,86,realestate
1897,1897,8,0,8,26,143,realestate
1898,1898,16,8,0,20,151,software
1899,1899,15,7,5,24,202,financial
1900,1900,6,21,8,15,76,financial
1901,1901,5,14,0,27,129,financial
1902,1902,15,6,9,18,201,education
1903,1903,4,7,3,5,179,financial
1904,1904,2,19,8,7,207,retail
1905,1905,3,28,8,28,170,education
1906,1906,12,29,6,21,104,financial
1907,1907,14,5,9,25,189,software
1908,1908,11,27,7,19,112,education
1909,1909,15,6,8,28,179,retail
1910,1910,6,21,2,6,60,education
1911,1911,19,25,9,7,110,realestate
1912,1912,1,11,2,1,230,education
1913,1913,8,13,3,21,189,realestate
1914,1914,13,11,6,13,130,realestate
1915,1915,4,9,7,9,181,financial
1916,1916,13,25,7,20,98,realestate
1917,1917,11,18,2,8,115,education
1918,1918,2,19,5,20,211,pharmaceutical
1919,1919,15,15,4,24,183,pharmaceutical
1920,1920,8,12,2,3,144,pharmaceutical
1921,1921,13,22,2,29,103,pharmaceutical
1922,1922,11,10,8,12,122,retail
1923,1923,18,29,7,9,96,education
1924,1924,5,25,8,8,98,retail
1925,1925,0,28,4,16,123,financial
1926,1926,2,18,4,18,199,software
1927,1927,1,14,4,18,207,financial
1928,1928,18,1,9,9,53,financial
1929,1929,5,18,0,9,132,pharmaceutical
1930,1930,0,20,1,2,122,financial
1931,1931,6,21,9,3,85,pharmaceutical
1932,1932,0,19,9,22,121,retail
1933,1933,17,21,0,26,197,realestate
1934,1934,1,19,7,17,202,retail
1935,1935,13,27,8,10,130,software
1936,1936,1,26,2,25,227,software
1937,1937,19,29,9,19,71,software
1938,1938,19,9,7,26,91,pharmaceutical
1939,1939,13,12,0,4,87,retail
1940,1940,12,3,9,21,106,software
1941,1941,4,8,1,19,154,realestate
1942,1942,16,19,8,0,159,financial
1943,1943,10,13,0,3,154,education
1944,1944,8,4,1,18,143,education
1945,1945,11,26,1,21,108,software
1946,1946,11,18,3,17,127,realestate
1947,1947,9,11,6,5,98,financial
1948,1948,14,13,0,25,184,software
1949,1949,0,21,2,10,123,realestate
1950,1950,3,1,7,9,199,realestate
1951,1951,18,23,2,23,68,realestate
1952,1952,17,9,5,19,189,software
1953,1953,3,6,3,19,176,software
1954,1954,18,16,9,28,85,pharmaceutical
1955,1955,0,17,7,6,121,pharmaceutical
1956,1956,16,23,7,2,150,education
1957,1957,4,21,1,25,154,financial
1958,1958,4,2,4,11,185,realestate
1959,1959,3,23,2,14,183,retail
1960,1960,6,19,8,23,84,software
1961,1961,2,13,3,15,218,pharmaceutical
1962,1962,8,17,7,20,174,education
1963,1963,6,22,8,12,50,software
1964,1964,2,14,5,12,214,education
1965,1965,18,23,9,18,68,software
1966,1966,5,16,7,23,92,software
1967,1967,4,19,3,28,162,software
1968,1968,18,0,1,9,70,retail
1969,1969,12,17,5,1,107,retail
1970,1970,11,25,7,17,130,financial
1971,1971,14,23,3,5,178,retail
1972,1972,6,29,3,21,76,realestate
1973,1973,17,10,8,1,198,pharmaceutical
1974,1974,8,3,2,25,168,software
1975,1975,16,15,9,0,160,financial
1976,1976,6,9,5,4,51,financial
1977,1977,4,6,3,25,150,pharmaceutical
1978,1978,2,12,9,15,216,pharmaceutical
1979,1979,1,6,7,16,211,retail
1980,1980,9,23,9,0,69,pharmaceutical
1981,1981,6,25,3,7,41,pharmaceutical
1982,1982,11,29,9,16,104,education
1983,1983,0,9,4,14,120,retail
1984,1984,2,24,9,22,208,realestate
1985,1985,11,6,5,20,99,pharmaceutical
1986,1986,11,23,8,15,127,financial
1987,1987,1,25,6,5,212,financial
1988,1988,17,11,9,13,197,software
1989,1989,8,10,6,16,123,pharmaceutical
1990,1990,15,9,2,14,201,retail
1991,1991,5,25,9,20,124,realestate
1992,1992,3,21,0,5,166,software
1993,1993,11,22,1,16,103,education
1994,1994,19,22,0,29,117,software
1995,1995,11,27,5,2,137,software
1996,1996,3,27,1,8,188,realestate
1997,1997,19,24,0,1,119,pharmaceutical
1998,1998,15,5,3,15,196,education
1999,1999,7,14,1,8,164,realestate
